<?xml version="1.0" encoding="UTF-8" standalone="no"?>
<!-- Created with Inkscape (http://www.inkscape.org/) -->

<svg
   width="64px"
   height="64px"
   id="svg2985"
   version="1.1"
   inkscape:version="1.1 (ce6663b3b7, 2021-05-25)"
   sodipodi:docname="icon_donnay.svg"
   inkscape:export-filename="icon_donnay.png"
   inkscape:export-xdpi="216"
   inkscape:export-ydpi="216"
   xmlns:inkscape="http://www.inkscape.org/namespaces/inkscape"
   xmlns:sodipodi="http://sodipodi.sourceforge.net/DTD/sodipodi-0.dtd"
   xmlns="http://www.w3.org/2000/svg"
   xmlns:svg="http://www.w3.org/2000/svg"
   xmlns:rdf="http://www.w3.org/1999/02/22-rdf-syntax-ns#"
   xmlns:cc="http://creativecommons.org/ns#"
   xmlns:dc="http://purl.org/dc/elements/1.1/">
  <defs
     id="defs2987">
    <inkscape:path-effect
       effect="fillet_chamfer"
       id="path-effect830"
       is_visible="true"
       lpeversion="1"
       satellites_param="F,0,0,1,0,5,0,1 @ F,0,0,1,0,5,0,1 @ F,0,0,1,0,5,0,1 @ F,0,0,1,0,5,0,1"
       unit="px"
       method="auto"
       mode="F"
       radius="5"
       chamfer_steps="1"
       flexible="false"
       use_knot_distance="false"
       apply_no_radius="true"
       apply_with_radius="true"
       only_selected="false"
       hide_knots="false" />
    <clipPath
       clipPathUnits="userSpaceOnUse"
       id="clipPath3010">
      <rect
         style="fill:#ffffff;fill-opacity:1;stroke:none"
         id="rect3012"
         width="56"
         height="71"
         x="75.5"
         y="-2.5" />
    </clipPath>
  </defs>
  <sodipodi:namedview
     id="base"
     pagecolor="#ffffff"
     bordercolor="#666666"
     borderopacity="1.0"
     inkscape:pageopacity="0"
     inkscape:pageshadow="2"
     inkscape:zoom="2.8284271"
     inkscape:cx="91.039999"
     inkscape:cy="109.77833"
     inkscape:current-layer="layer1"
     showgrid="true"
     inkscape:document-units="px"
     inkscape:grid-bbox="true"
     inkscape:snap-smooth-nodes="true"
     inkscape:window-width="1848"
     inkscape:window-height="1136"
     inkscape:window-x="0"
     inkscape:window-y="0"
     inkscape:window-maximized="1"
     inkscape:snap-bbox="true"
     inkscape:object-nodes="true"
     inkscape:snap-global="false"
     inkscape:snap-grids="true"
     inkscape:snap-to-guides="true"
     inkscape:snap-object-midpoints="true"
     inkscape:snap-center="true"
     inkscape:snap-bbox-midpoints="true"
     inkscape:snap-bbox-edge-midpoints="true"
     inkscape:bbox-paths="true"
     inkscape:bbox-nodes="true"
     inkscape:pagecheckerboard="0" />
  <metadata
     id="metadata2990">
    <rdf:RDF>
      <cc:Work
         rdf:about="">
        <dc:format>image/svg+xml</dc:format>
        <dc:type
           rdf:resource="http://purl.org/dc/dcmitype/StillImage" />
      </cc:Work>
    </rdf:RDF>
  </metadata>
  <g
     id="layer1"
     inkscape:label="Layer 1"
     inkscape:groupmode="layer">
    <path
       style="fill:#2cb15a;fill-opacity:1;stroke:none"
       id="rect3160"
       width="64"
       height="64"
       x="-64"
       y="0"
       transform="rotate(-90)"
       clip-path="none"
       inkscape:path-effect="#path-effect830"
       d="m -59,0 h 54 a 5,5 45 0 1 5,5 v 54 a 5,5 135 0 1 -5,5 h -54 a 5,5 45 0 1 -5,-5 V 5 a 5,5 135 0 1 5,-5 z"
       sodipodi:type="rect" />
    <path
       style="fill:#000000"
       d=""
       id="path3819"
       inkscape:connector-curvature="0" />
    <path
       style="fill:#000000"
       d=""
       id="path3817"
       inkscape:connector-curvature="0" />
    <path
       style="fill:#000000"
       d=""
       id="path3880"
       inkscape:connector-curvature="0" />
    <g
       id="g3979"
       transform="matrix(1.016826,0,0,1.016826,26.424239,-159.79794)">
      <path
         style="fill:#ffffff;fill-opacity:1"
         d="m -12.751756,188.62418 0,-21.01235 0.4818,0.081 c 0.264989,0.0446 1.918146,0.39668 3.6736762,0.78243 3.4422435,0.75639 6.3288772,1.80242 8.24287143,2.2505 l 1.1563237,0.43086 0.032571,17.60791 0.032571,17.60792 -2.02401413,0.59738 c -2.8314087,0.83567 -4.6221787,1.27097 -8.302968,2.01829 -1.7563102,0.3566 -3.2156942,0.64835 -3.2430652,0.64835 -0.02741,0 -0.04979,-9.45555 -0.04979,-21.01235 z m 15.8030815,10.62026 0,-6.5377 0.738759,-0.09 c 2.9342902,-0.35732 4.6466026,-1.22412 5.3118382,-2.68894 0.7404104,-1.63035 -0.2526575,-3.59724 -2.1859984,-4.32961 -0.8326704,-0.31542 -2.8366649,-0.75421 -3.4557485,-0.75666 l -0.4262639,-0.002 0.089944,-6.39189 c 0.049468,-3.51554 0.1059908,-6.41078 0.1256101,-6.43385 0.080141,-0.0943 3.6258655,1.37746 5.9689144,2.47753 4.9898036,2.34273 8.8495786,4.89334 11.3079756,7.47252 2.411143,2.5296 3.297576,4.70217 3.182614,7.80029 -0.05173,1.39379 -0.106132,1.68978 -0.500819,2.72443 -1.061801,2.78341 -3.244761,5.02749 -7.244554,7.4474 -1.953302,1.18176 -6.8153545,3.5785 -9.0578627,4.46507 -1.5791888,0.62432 -3.6679746,1.38081 -3.8126742,1.38081 -0.022958,0 -0.041728,-2.94197 -0.041728,-6.5377 z"
         id="path3983"
         inkscape:connector-curvature="0"
         sodipodi:nodetypes="ccssscccsssccccsssccscssssssscc" />
    </g>
  </g>
</svg>
