<?xml version="1.0" encoding="UTF-8" standalone="no"?>
<!-- Created with Inkscape (http://www.inkscape.org/) -->

<svg
   width="64px"
   height="64px"
   id="svg2985"
   version="1.1"
   inkscape:version="1.1 (ce6663b3b7, 2021-05-25)"
   sodipodi:docname="icon_wilson.svg"
   inkscape:export-filename="icon_wilson.png"
   inkscape:export-xdpi="216"
   inkscape:export-ydpi="216"
   xmlns:inkscape="http://www.inkscape.org/namespaces/inkscape"
   xmlns:sodipodi="http://sodipodi.sourceforge.net/DTD/sodipodi-0.dtd"
   xmlns="http://www.w3.org/2000/svg"
   xmlns:svg="http://www.w3.org/2000/svg"
   xmlns:rdf="http://www.w3.org/1999/02/22-rdf-syntax-ns#"
   xmlns:cc="http://creativecommons.org/ns#"
   xmlns:dc="http://purl.org/dc/elements/1.1/">
  <defs
     id="defs2987">
    <inkscape:path-effect
       effect="fillet_chamfer"
       id="path-effect825"
       is_visible="true"
       lpeversion="1"
       satellites_param="F,0,0,1,0,5,0,1 @ F,0,0,1,0,5,0,1 @ F,0,0,1,0,5,0,1 @ F,0,0,1,0,5,0,1"
       unit="px"
       method="auto"
       mode="F"
       radius="5"
       chamfer_steps="1"
       flexible="false"
       use_knot_distance="false"
       apply_no_radius="true"
       apply_with_radius="true"
       only_selected="false"
       hide_knots="false" />
  </defs>
  <sodipodi:namedview
     id="base"
     pagecolor="#ffffff"
     bordercolor="#666666"
     borderopacity="1.0"
     inkscape:pageopacity="0"
     inkscape:pageshadow="2"
     inkscape:zoom="7.9999999"
     inkscape:cx="40.687501"
     inkscape:cy="10.3125"
     inkscape:current-layer="layer1"
     showgrid="true"
     inkscape:document-units="px"
     inkscape:grid-bbox="true"
     inkscape:snap-smooth-nodes="true"
     inkscape:window-width="1848"
     inkscape:window-height="1136"
     inkscape:window-x="0"
     inkscape:window-y="0"
     inkscape:window-maximized="1"
     inkscape:snap-bbox="true"
     inkscape:object-nodes="true"
     inkscape:snap-global="false"
     inkscape:pagecheckerboard="0" />
  <metadata
     id="metadata2990">
    <rdf:RDF>
      <cc:Work
         rdf:about="">
        <dc:format>image/svg+xml</dc:format>
        <dc:type
           rdf:resource="http://purl.org/dc/dcmitype/StillImage" />
      </cc:Work>
    </rdf:RDF>
  </metadata>
  <g
     id="layer1"
     inkscape:label="Layer 1"
     inkscape:groupmode="layer">
    <path
       style="fill:#2cb15a;fill-opacity:1;stroke:none"
       id="rect3160"
       width="64"
       height="64"
       x="-64"
       y="0"
       transform="rotate(-90)"
       clip-path="none"
       inkscape:path-effect="#path-effect825"
       d="m -59,0 h 54 a 5,5 45 0 1 5,5 v 54 a 5,5 135 0 1 -5,5 h -54 a 5,5 45 0 1 -5,-5 V 5 a 5,5 135 0 1 5,-5 z"
       sodipodi:type="rect" />
    <g
       id="g3142"
       style="fill:#ffffff;fill-opacity:1"
       transform="translate(0.1202282,0.1270772)">
      <path
         style="fill:#ffffff;fill-opacity:1"
         d="m 44.445486,52.601569 c 2.237696,-0.20156 4.48671,-1.01468 5.978154,-2.16138 2.25556,-1.73418 3.703816,-3.52398 5.06126,-6.25484 1.5567,-3.13173 2.492067,-6.78204 2.834388,-11.061308 0.104813,-1.310234 0.14825,-3.305121 0.09789,-4.495887 C 58.12507,21.720473 57.176581,15.755718 55.73656,11.77053 55.64358,11.513208 55.533613,11.250948 55.492189,11.18773 l -0.07531,-0.114942 -6.325541,0 -6.325541,0 -0.02592,0.107045 c -0.01425,0.05888 -0.02001,1.605674 -0.0128,3.437331 l 0.01311,3.330287 1.890388,0.01244 1.890386,0.01244 0.0691,0.106499 c 0.163289,0.251676 0.789587,2.579282 1.097562,4.079056 0.403917,1.966972 0.671634,3.883706 0.833952,5.970727 0.08258,1.061697 0.130323,3.373319 0.08715,4.219005 -0.14404,2.82124 -0.930002,5.826237 -2.139957,8.181771 -0.612653,1.19271 -1.515369,2.14579 -2.491615,2.63064 -1.39955,0.69508 -2.683343,0.56148 -3.61574,-0.37629 -0.349643,-0.35165 -0.568183,-0.72816 -0.726265,-1.25124 -0.07734,-0.25591 -0.08401,-1.21959 -0.106306,-15.354482 l -0.02379,-15.081439 -7.731022,0 -7.731021,0 -0.01221,3.437331 -0.01221,3.437331 2.254325,0 c 1.850604,0 2.264011,0.01167 2.308412,0.06517 0.04014,0.04837 0.05085,2.94073 0.04151,11.215929 l -0.01258,11.15076 -0.132974,0.42818 c -0.448863,1.44535 -1.281077,2.29745 -2.584628,2.64639 -0.557851,0.14933 -1.552978,0.14958 -2.125561,5.3e-4 -0.881397,-0.22943 -1.516315,-0.58134 -2.019686,-1.11945 -0.433912,-0.46385 -0.679686,-0.94076 -0.851077,-1.65148 -0.08014,-0.33233 -0.204342,-1.159649 -0.110431,-14.98122 l -0.0256,-14.629472 -7.707234,0 -7.7072337,0 -0.01221,3.437331 -0.01221,3.437331 2.224468,7.28e-4 c 1.318579,4.31e-4 2.25353,0.0191 2.295832,0.04584 0.06299,0.03981 0.07431,1.361582 0.09646,11.262776 l 0.02509,11.217666 0.1039207,0.60137 c 0.46641,2.69901 1.325221,4.80303 2.73127,6.6914 0.412803,0.55441 1.581085,1.73686 2.110049,2.13564 1.645555,1.24056 3.550133,2.05085 5.73285,2.43899 1.288654,0.22916 3.099718,0.33889 4.043919,0.24503 3.377629,-0.33577 6.324132,-1.79379 8.21026,-4.06269 0.200102,-0.24071 0.404139,-0.48583 0.453415,-0.5447 0.04928,-0.0589 0.109512,-0.10705 0.133859,-0.10705 0.02435,0 0.21553,0.22186 0.424851,0.49301 1.473741,1.90906 3.587768,3.34934 5.763904,3.92693 1.271716,0.33753 3.028852,0.44258 4.773927,0.28539 z"
         id="path3154"
         inkscape:connector-curvature="0"
         sodipodi:nodetypes="sssssscccccsccccsssssssscccccscscsssssscccccscscsssssssssss" />
    </g>
  </g>
</svg>
