<?xml version="1.0" encoding="UTF-8" standalone="no"?>
<!-- Created with Inkscape (http://www.inkscape.org/) -->

<svg
   xmlns:dc="http://purl.org/dc/elements/1.1/"
   xmlns:cc="http://creativecommons.org/ns#"
   xmlns:rdf="http://www.w3.org/1999/02/22-rdf-syntax-ns#"
   xmlns:svg="http://www.w3.org/2000/svg"
   xmlns="http://www.w3.org/2000/svg"
   xmlns:sodipodi="http://sodipodi.sourceforge.net/DTD/sodipodi-0.dtd"
   xmlns:inkscape="http://www.inkscape.org/namespaces/inkscape"
   width="64"
   height="64"
   id="svg3059"
   version="1.1"
   inkscape:version="0.48.4 r9939"
   sodipodi:docname="icon.svg"
   inkscape:export-filename="/home/mck/Desktop/icon_racketdb.png"
   inkscape:export-xdpi="101.25"
   inkscape:export-ydpi="101.25">
  <defs
     id="defs3061">
    <linearGradient
       id="linearGradient4061">
      <stop
         style="stop-color:#2cb1f9;stop-opacity:1;"
         offset="0"
         id="stop4063" />
      <stop
         id="stop4069"
         offset="0.5"
         style="stop-color:#2c99a9;stop-opacity:1;" />
      <stop
         style="stop-color:#2c8259;stop-opacity:1"
         offset="1"
         id="stop4065" />
    </linearGradient>
  </defs>
  <sodipodi:namedview
     id="base"
     pagecolor="#ffffff"
     bordercolor="#666666"
     borderopacity="1.0"
     inkscape:pageopacity="0.0"
     inkscape:pageshadow="2"
     inkscape:zoom="8"
     inkscape:cx="57.665855"
     inkscape:cy="28.324104"
     inkscape:current-layer="layer1"
     showgrid="true"
     inkscape:document-units="px"
     inkscape:grid-bbox="true"
     inkscape:snap-smooth-nodes="true"
     inkscape:snap-bbox="true"
     inkscape:snap-bbox-edge-midpoints="true"
     inkscape:bbox-paths="true"
     inkscape:object-nodes="true"
     inkscape:window-width="1869"
     inkscape:window-height="1176"
     inkscape:window-x="51"
     inkscape:window-y="24"
     inkscape:window-maximized="1"
     inkscape:snap-global="false"
     fit-margin-top="0"
     fit-margin-left="0"
     fit-margin-right="0"
     fit-margin-bottom="0" />
  <metadata
     id="metadata3064">
    <rdf:RDF>
      <cc:Work
         rdf:about="">
        <dc:format>image/svg+xml</dc:format>
        <dc:type
           rdf:resource="http://purl.org/dc/dcmitype/StillImage" />
        <dc:title></dc:title>
      </cc:Work>
    </rdf:RDF>
  </metadata>
  <g
     id="layer1"
     inkscape:label="Layer 1"
     inkscape:groupmode="layer"
     transform="translate(7.2991944e-7,-1.4357874)">
    <g
       id="g4253"
       clip-path="none"
       transform="translate(5.4016112e-7,1.5281166)">
      <path
         style="fill:#2cb159;fill-opacity:1;stroke:none"
         clip-path="none"
         d="m 32,0.09375 c -17.673112,0 -32,14.326888 -32,32 0,17.673112 14.326888,32 32,32 2.795662,0 5.50902,-0.357705 8.09375,-1.03125 -3.336166,-0.85577 -6.012829,-2.322673 -6.53125,-4.59375 l 0,-2 c -0.411069,0.11493 -0.828419,0.233962 -1.25,0.3125 -3.298236,0.614439 -6.763446,-0.122715 -9.71875,-1.375 -3.144783,-1.332575 -5.776821,-3.653742 -7.9375,-6.125 C 13.152464,47.561309 11.995732,45.526365 11.25,43.375 10.226986,40.423703 9.6102803,37.204118 9.90625,34 c 0.334345,-3.619557 1.751291,-7.081958 3.4375,-10.15625 1.181689,-2.154453 2.731278,-4.131237 4.59375,-5.75 2.825097,-2.455425 6.340488,-3.482267 8.96875,-5.3125 2.921794,-2.034638 5.88379,-3.9375776 8,-6.46875 0.531994,-0.6363113 1.306935,-1.9892481 1.875,-3.125 C 37.349315,2.0517481 37.75,1.125 37.75,1.125 L 37.9375,0.65625 C 36.010505,0.29408451 34.032177,0.09375 32,0.09375 z m 8.09375,1.03125 -0.375,0.84375 c 0,0 -0.43364,0.9926764 -1.03125,2.1875 -0.59761,1.1948236 -1.325839,2.5753834 -2.125,3.53125 -2.407706,2.879826 -5.571394,4.84789 -8.4375,6.84375 -3.009668,2.095831 -6.389701,3.136053 -8.75,5.1875 -1.657606,1.440703 -3.095105,3.252823 -4.15625,5.1875 -1.601609,2.92005 -2.861745,6.092985 -3.15625,9.28125 -0.258092,2.794064 0.268912,5.759811 1.21875,8.5 0.654792,1.889011 1.689104,3.688175 3,5.1875 2.025585,2.316746 4.445065,4.413659 7.15625,5.5625 2.675212,1.1336 5.755258,1.724255 8.46875,1.21875 0.556746,-0.103718 1.108886,-0.254702 1.65625,-0.4375 l 0,-25.59375 c 1.133088,-2.925102 4.495899,-5.225528 15.21875,-5.5 1.050498,0.02782 2.073344,0.07797 3.0625,0.15625 0.775495,-1.865389 1.699932,-3.717054 3.03125,-5.34375 0.944361,-1.153885 2.434514,-2.265315 3.75,-3.1875 0.07155,-0.05016 0.117242,-0.07639 0.1875,-0.125 C 54.523579,8.051836 47.891524,3.1569913 40.09375,1.125 z m 19.8125,15.34375 c -0.01382,0.0097 -0.01739,0.02153 -0.03125,0.03125 -1.252209,0.877826 -2.7091,2.03704 -3.34375,2.8125 -1.004575,1.227459 -1.765573,2.672168 -2.4375,4.21875 4.795541,0.612867 8.441129,1.895411 9.5625,3.96875 -0.575707,-3.956715 -1.869161,-7.678984 -3.75,-11.03125 z"
         transform="translate(-1.2700806e-6,-0.0923292)"
         id="path3872"
         inkscape:connector-curvature="0" />
    </g>
    <g
       id="g5917"
       transform="translate(-0.493718,0.63128158)">
      <path
         sodipodi:nodetypes="ccsccsc"
         inkscape:connector-curvature="0"
         id="path3907-6"
         d="m 36.081727,50.820899 0,7.195095 c 0,2.742429 5.940608,4.965596 13.26872,4.965596 7.32811,0 13.268715,-2.223167 13.268715,-4.965596 l 0,-7.195095 c 0,2.742429 -5.940605,4.965596 -13.268715,4.965596 -7.328112,0 -13.26872,-2.223167 -13.26872,-4.965596"
         style="fill:#33b5ff;fill-opacity:1;stroke:none" />
      <path
         style="fill:#33b5ff;fill-opacity:1;stroke:none"
         d="m 36.081727,41.978478 0,7.195095 c 0,2.742441 5.940608,4.965609 13.26872,4.965609 7.32811,0 13.268715,-2.223168 13.268715,-4.965609 l 0,-7.195095 c 0,2.742429 -5.940605,4.965596 -13.268715,4.965596 -7.328112,0 -13.26872,-2.223167 -13.26872,-4.965596"
         id="path4231"
         inkscape:connector-curvature="0"
         sodipodi:nodetypes="ccsccsc" />
      <path
         sodipodi:nodetypes="ccsccsc"
         inkscape:connector-curvature="0"
         id="path4233"
         d="m 36.081727,32.800275 0,7.195095 c 0,2.742429 5.940608,4.965596 13.26872,4.965596 7.32811,0 13.268715,-2.223167 13.268715,-4.965596 l 0,-7.195095 c 0,2.742429 -5.940605,4.965596 -13.268715,4.965596 -7.328112,0 -13.26872,-2.223167 -13.26872,-4.965596"
         style="fill:#33b5ff;fill-opacity:1;stroke:none" />
      <path
         transform="matrix(2.9487544,0,0,2.1759581,-175.83864,-25.845723)"
         d="m 80.867301,26.169786 c 0,1.260329 -2.014615,2.282027 -4.49977,2.282027 -2.485155,0 -4.499771,-1.021698 -4.499771,-2.282027 0,-1.260328 2.014616,-2.282026 4.499771,-2.282026 2.485155,0 4.49977,1.021698 4.49977,2.282026 z"
         sodipodi:ry="2.2820268"
         sodipodi:rx="4.4997706"
         sodipodi:cy="26.169786"
         sodipodi:cx="76.367531"
         id="path3907-8"
         style="fill:#33b5ff;fill-opacity:1;stroke:none"
         sodipodi:type="arc" />
      <path
         id="path5876-6"
         d="m 49.985071,28.653734 c -0.0068,0 0,0.03577 0,0.03957 -0.01089,0 -0.03957,-0.0066 -0.03957,0 -0.0051,0 -0.03134,0.03185 -0.03957,0.03957 -0.0079,0 -0.03957,-0.0038 -0.03957,0 -0.0077,0 0,0.03653 0,0.03957 0,0.003 -0.0261,-0.0048 -0.03957,0 -0.01346,0.0049 -0.03957,-0.0035 -0.03957,0 -0.0077,0 0,0.03577 0,0.03957 0,0.0038 -0.03083,0 -0.03957,0 -0.0056,0.0077 -0.03273,0.03957 -0.03957,0.03957 0,0.0038 -0.02995,0 -0.03957,0 0,0.0038 -0.03349,0 -0.03957,0 -0.01254,0 0,0.02843 0,0.03957 0,0.0041 -0.02995,0 -0.03957,0 0,0.0038 -0.03185,0 -0.03957,0 -0.0077,0 0,0.03577 0,0.03957 -0.0051,0 -0.03134,-0.0077 -0.03957,0 -0.0082,0.0077 0.0079,0.03957 0,0.03957 -0.0079,0 -0.03957,-0.0038 -0.03957,0 -0.0068,0 -0.034,-0.0077 -0.03957,0 -0.0056,0.0077 0.0087,0.03957 0,0.03957 -0.0087,0 -0.03957,-0.0038 -0.03957,0 0,0.0038 -0.03083,0 -0.03957,0 -0.0087,0 -0.034,0.03185 -0.03957,0.03957 0,0.0066 -0.02868,0.03957 -0.03957,0.03957 0,0.0038 -0.03273,0 -0.03957,0 -0.0056,0.0077 -0.03084,0.03957 -0.03957,0.03957 0,0.0038 -0.03185,0 -0.03957,0 0,0.0032 -0.0261,-0.0053 -0.03957,0 -0.01346,0.0053 0,0.03641 0,0.03957 0,0.0032 -0.03185,0 -0.03957,0 -0.0077,0 -0.03957,0.03577 -0.03957,0.03957 0,0.0038 -0.03185,0 -0.03957,0 -0.0077,0 -0.03957,0.03577 -0.03957,0.03957 0,0.01114 -0.02704,0.03957 -0.03957,0.03957 -0.0061,0 -0.03957,-0.0038 -0.03957,0 0,0.0034 -0.02805,0.03476 -0.03957,0.03957 0,0.0034 -0.02995,0 -0.03957,0 0,0.0038 -0.03185,0 -0.03957,0 -0.0077,0 0,0.03577 0,0.03957 -0.0058,0 -0.03957,-0.0038 -0.03957,0 0,0.0038 -0.03185,0 -0.03957,0 -0.0077,0 0,0.03577 0,0.03957 -0.0077,0 -0.03957,-0.0038 -0.03957,0 0,0.0038 -0.03185,0.03957 -0.03957,0.03957 -0.0077,0 -0.03957,-0.0038 -0.03957,0 -0.0087,0 -0.034,0.03185 -0.03957,0.03957 -0.0068,0 -0.03957,-0.0038 -0.03957,0 -0.0087,0 -0.034,0.03185 -0.03957,0.03957 -0.0068,0 -0.03957,-0.0038 -0.03957,0 0,0.0038 0.0096,0.03957 0,0.03957 0,0.0038 -0.03274,0 -0.03957,0 -0.0056,0.0077 -0.03083,0.03957 -0.03957,0.03957 0,0.0038 -0.03185,0 -0.03957,0 -0.0077,0 -0.03957,0.03577 -0.03957,0.03957 0,0.0038 -0.03185,0 -0.03957,0 0,0.0038 0.0077,0.03957 0,0.03957 -0.0077,0 -0.03957,-0.0038 -0.03957,0 -0.0087,0 -0.034,-0.0077 -0.03957,0 -0.0056,0.0077 0.0068,0.03957 0,0.03957 -0.0068,0 -0.03957,-0.0038 -0.03957,0 -0.0096,0 -0.03957,-0.0038 -0.03957,0 0,0.0038 0.0058,0.03957 0,0.03957 -0.0058,0 -0.03957,-0.0038 -0.03957,0 0,0.0038 -0.03274,0 -0.03957,0 -0.0068,0 0.0072,0.02995 0,0.03957 -0.0072,0.0096 -0.03235,0 -0.03957,0 0,0.0038 -0.03185,0.03957 -0.03957,0.03957 0,0.0038 -0.03083,0 -0.03957,0 -0.0056,0.0077 -0.03274,0.03957 -0.03957,0.03957 -0.0087,0 -0.034,-0.0077 -0.03957,0 -0.0056,0.0077 -0.03273,0.03957 -0.03957,0.03957 -0.0077,0 -0.03957,-0.0038 -0.03957,0 -0.0096,0 -0.03957,0.03577 -0.03957,0.03957 -0.0058,0 -0.03957,-0.0038 -0.03957,0 -0.01089,0 -0.03957,0.03299 -0.03957,0.03957 -0.0082,0.0077 -0.03261,0.03957 -0.03957,0.03957 -0.007,0 -0.03957,-0.0038 -0.03957,0 0,0.0038 -0.03083,0 -0.03957,0 -0.0087,0 0.0056,0.03185 0,0.03957 -0.0056,0.0077 -0.03274,0 -0.03957,0 0,0.0038 -0.03084,0 -0.03957,0 -0.0087,0 0.0056,0.03185 0,0.03957 -0.0056,0.0077 -0.03273,0 -0.03957,0 0,0.0038 -0.02995,0.03957 -0.03957,0.03957 -0.0077,0 -0.03957,-0.0044 -0.03957,0 0,0.01076 -0.02445,0.03929 -0.03957,0.03957 -0.0077,0 -0.03957,-0.0038 -0.03957,0 -0.0077,0 0,0.03577 0,0.03957 0,0.0038 -0.03375,0 -0.03957,0 -0.0077,0 -0.03957,-0.0038 -0.03957,0 0,0.0038 0.0077,0.03957 0,0.03957 0,0.0038 -0.03083,0 -0.03957,0 -0.0056,0.0077 -0.03274,0.03957 -0.03957,0.03957 0,0.0038 -0.03084,0 -0.03957,0 -0.0056,0.0077 -0.03273,0.03957 -0.03957,0.03957 0,0.0066 -0.02868,0 -0.03957,0 0,0.0038 0.006,0.03957 0,0.03957 -0.006,0 -0.03134,-0.0077 -0.03957,0 -0.0082,0.0077 -0.03261,0 -0.03957,0 0,0.0038 0.0077,0.03957 0,0.03957 -0.0077,0 -0.03957,-0.0038 -0.03957,0 0,0.0038 -0.03375,0 -0.03957,0 0,0.0038 0.0077,0.03957 0,0.03957 -0.0077,0 -0.03957,-0.0038 -0.03957,0 0,0.0038 -0.03375,0 -0.03957,0 -0.0058,0 0,0.03577 0,0.03957 -0.0077,0 -0.03957,-0.0038 -0.03957,0 0,0.0066 -0.02868,0.03957 -0.03957,0.03957 0,0.0034 -0.02805,-0.0048 -0.03957,0 0,0.0034 -0.02995,0.03957 -0.03957,0.03957 -0.006,0 -0.03134,-0.0077 -0.03957,0 -0.0082,0.0077 -0.03261,0.03957 -0.03957,0.03957 -0.0077,0 -0.03957,-0.0038 -0.03957,0 -0.0077,0 -0.03957,0.03577 -0.03957,0.03957 -0.0077,0 -0.03957,-0.0038 -0.03957,0 -0.0077,0 0,0.03577 0,0.03957 0,0.0038 -0.03539,0 -0.03957,0 -0.02426,0.02181 -0.02944,0.03957 -0.03957,0.03957 0,0.0038 -0.02995,0 -0.03957,0 0,0.0038 -0.03451,0 -0.03957,0 -0.0051,0 0.0082,0.03185 0,0.03957 -0.0082,0.0077 -0.03172,0 -0.03957,0 0,0.0038 -0.03274,0 -0.03957,0 -0.0068,0 0.0056,0.03185 0,0.03957 -0.0056,0.0077 -0.03084,0 -0.03957,0 0,0.0038 -0.03185,0.03957 -0.03957,0.03957 -0.0087,0 -0.034,-0.0077 -0.03957,0 -0.0056,0.0077 -0.03274,0.03957 -0.03957,0.03957 -0.0096,0 -0.03957,-0.0034 -0.03957,0 0,0.0034 0.01152,0.03476 0,0.03957 -0.01152,0.0048 -0.03957,-0.0034 -0.03957,0 0,0.0038 -0.03084,0.03957 -0.03957,0.03957 -0.0087,0 -0.034,-0.0077 -0.03957,0 0,0.0038 -0.02995,0.03957 -0.03957,0.03957 0,0.0038 -0.03273,0 -0.03957,0 -0.0056,0.0077 -0.03084,0.03957 -0.03957,0.03957 0,0.0038 -0.03185,0 -0.03957,0 0,0.0051 -0.02611,0.03476 -0.03957,0.03957 0,0.0037 -0.03185,0 -0.03957,0 0,0.0038 0.0096,0.03957 0,0.03957 -0.0096,0 -0.03957,-0.0034 -0.03957,0 -0.01152,0.0048 -0.03957,-0.0034 -0.03957,0 0,0.0034 0.0096,0.03957 0,0.03957 -0.0096,0 -0.03957,-0.0038 -0.03957,0 -0.0068,0 -0.034,-0.0077 -0.03957,0 -0.0056,0.0077 0.0087,0.03957 0,0.03957 -0.0087,0 -0.03957,-0.0038 -0.03957,0 0,0.0038 -0.03185,0 -0.03957,0 -0.0077,0 0,0.03577 0,0.03957 -0.0058,0 -0.03957,-0.0058 -0.03957,0 -0.01502,0 -0.01627,0.02545 0,0.03957 0.009,0.0077 0.03071,-0.0023 0.03957,0 0,0.0034 0.03185,0.03957 0.03957,0.03957 0.01089,0 0.03957,-0.0066 0.03957,0 0.0068,0 0.034,0.03185 0.03957,0.03957 0.0087,0 0.03957,-0.0038 0.03957,0 0.0068,0 0.034,0.03185 0.03957,0.03957 0.0087,0 0.03957,-0.0038 0.03957,0 0,0.0038 -0.0077,0.03957 0,0.03957 0,0.0038 0.03185,0 0.03957,0 0.0058,0 0.03957,-0.0038 0.03957,0 0,0.0038 -0.0077,0.03957 0,0.03957 0,0.0038 0.03185,0 0.03957,0 0,0.0032 0.0261,-0.0053 0.03957,0 0.01346,0.0053 0,0.03451 0,0.03957 0,0.0051 0.03185,0 0.03957,0 0,0.0038 0.02995,0.03957 0.03957,0.03957 0.0068,0 0.034,-0.0077 0.03957,0 0.0056,0.0077 -0.0087,0.03957 0,0.03957 0.0087,0 0.03957,-0.0038 0.03957,0 0.0077,0 0.03957,-0.0038 0.03957,0 0,0.0038 0.034,0.03957 0.03957,0.03957 0.01152,0 0.03603,0.03121 0.03957,0.03957 0.0013,0.003 0.03033,0 0.03957,0 0.0077,0 0.03957,-0.0058 0.03957,0 0,0.0066 -0.01089,0.03957 0,0.03957 0.0096,0 0.03957,-0.0038 0.03957,0 0,0.0038 0.02805,0 0.03957,0 0,0.0038 0.02995,0.03957 0.03957,0.03957 0,0.0038 0.03185,0 0.03957,0 0,0.0038 0.02995,0 0.03957,0 0.0096,0 0,0.03577 0,0.03957 0.0077,0 0.03957,-0.0038 0.03957,0 0.01127,0 0.03717,-0.0038 0.03957,0 0.0075,0 0.03957,0.03577 0.03957,0.03957 0.01346,0 0.03957,-0.0038 0.03957,0 0.0077,0 0.03957,-0.0038 0.03957,0 0.01346,0 0.03957,0.03577 0.03957,0.03957 0.01402,0 0.03957,-0.007 0.03957,0 0.01346,0 0.03957,0.03577 0.03957,0.03957 0,0.0038 0.02226,0 0.03957,0 0.01731,0 0.03957,-0.0038 0.03957,0 0.01152,0 0.03957,-0.0038 0.03957,0 0,0.0038 0.01841,0 0.03957,0 0.02116,0 0.03957,0.03577 0.03957,0.03957 0,0.0038 0.01841,0 0.03957,0 0.02116,0 0.03957,-0.0038 0.03957,0 0,0.0041 0.007,0 0.03957,0 0.03265,0 0.03957,-0.0041 0.03957,0 0,0.0044 0.109183,0 0.237438,0 0.128257,0 0.197865,0.0046 0.197865,0 0,-0.0041 0.0046,0 0.03957,0 0.03499,0 0.07915,0.0041 0.07915,0 0,-0.0038 0.01841,0 0.03957,0 0,-0.0038 0.01841,-0.03957 0.03957,-0.03957 0.02116,0 0.03957,0.0038 0.03957,0 0,-0.0038 0.02419,0 0.03957,0 0.01545,0 0.03957,0.0038 0.03957,0 0,-0.0038 0.02226,0 0.03957,0 0,-0.0038 0.02611,-0.03957 0.03957,-0.03957 0.01713,0 0.03957,0.0073 0.03957,0 0.01152,0 0.03957,0.0038 0.03957,0 0.01346,0 0.03957,-0.03577 0.03957,-0.03957 0,-0.0038 0.02611,0 0.03957,0 0,-0.0038 0.02805,0 0.03957,0 0,-0.0038 0.02995,-0.03957 0.03957,-0.03957 0,-0.0038 0.02805,0 0.03957,0 0,-0.0038 0.02995,0 0.03957,0 0,-0.0038 0.02805,-0.03957 0.03957,-0.03957 0,-0.0038 0.03185,0 0.03957,0 0.01347,0 0.03957,0.0038 0.03957,0 0,-0.0038 -0.0077,-0.03957 0,-0.03957 0.0077,0 0.03957,0.0038 0.03957,0 0.0096,0 0.03957,0.0038 0.03957,0 0.0077,0 0,-0.03375 0,-0.03957 0,-0.0058 0.03375,0 0.03957,0 0.01696,0 0.03957,0.0058 0.03957,0 0,-0.0029 0.02995,-0.03957 0.03957,-0.03957 0,-0.0038 0.03185,0 0.03957,0 0.0077,0 0.03957,0.0038 0.03957,0 0,-0.0038 -0.0096,-0.03957 0,-0.03957 0.0096,0 0.03957,0.0038 0.03957,0 0,-0.0038 0.02995,0 0.03957,0 0.0096,0 0,-0.03577 0,-0.03957 0.0077,0 0.03957,0.0038 0.03957,0 0.0077,0 0.03957,0.0038 0.03957,0 0.0096,0 0,-0.03577 0,-0.03957 0,-0.0038 0.03185,0 0.03957,0 0.0077,0 0.03947,0.0029 0.03957,0 1.01e-4,-0.0029 0.01851,-0.02995 0.03957,-0.03957 0.02106,-0.0096 0.03957,-0.03666 0.03957,-0.03957 0.0096,0 0.03957,0.0038 0.03957,0 0,-0.0038 0.02995,0 0.03957,0 0.0096,0 0,-0.03577 0,-0.03957 0,-0.0038 0.03185,0 0.03957,0 0.0077,0 0.03957,0.0038 0.03957,0 0.0087,0 0.034,-0.03185 0.03957,-0.03957 0.0068,0 0.03957,0.0038 0.03957,0 0,-0.0038 -0.0096,-0.03957 0,-0.03957 0,-0.0058 0.03185,0 0.03957,0 0,-0.003 0.02611,-0.03476 0.03957,-0.03957 0,-0.0037 0.03185,0 0.03957,0 0,-0.0038 0.02995,0 0.03957,0 0.0096,0 0,-0.03577 0,-0.03957 0.0068,0 0.034,0.0077 0.03957,0 0.0056,-0.0077 0.03084,-0.03957 0.03957,-0.03957 0.0077,0 0.03957,0.0038 0.03957,0 0,-0.0038 0.03375,-0.03957 0.03957,-0.03957 0.0077,0 0.03957,0.0058 0.03957,0 0.0077,0 0,-0.03577 0,-0.03957 0,-0.0038 0.02995,0 0.03957,0 0,-0.0038 0.03185,0 0.03957,0 0,-0.0032 0.02611,-0.03425 0.03957,-0.03957 0,-0.0032 0.03185,0 0.03957,0 0,-0.0038 -0.0077,-0.03957 0,-0.03957 0.0077,0 0.03957,0.0038 0.03957,0 0.0087,0 0.034,0.0077 0.03957,0 0.0056,-0.0077 -0.0068,-0.03957 0,-0.03957 0.0068,0 0.03957,0.0038 0.03957,0 0.0087,0 0.034,0.0077 0.03957,0 0.0056,-0.0077 -0.0068,-0.03957 0,-0.03957 0,-0.0066 0.02868,0 0.03957,0 0,-0.0034 0.02805,-0.03476 0.03957,-0.03957 0,-0.0034 0.02995,0 0.03957,0 0,-0.0038 0.03274,-0.03957 0.03957,-0.03957 0.0056,-0.0077 0.03084,0 0.03957,0 0.0087,0 0,-0.03577 0,-0.03957 0,-0.0038 0.03274,0 0.03957,0 0.0056,-0.0077 0.03084,0 0.03957,0 0.0087,0 0,-0.03577 0,-0.03957 0.0068,0 0.034,0.0077 0.03957,0 0.0056,-0.0077 0.03084,0 0.03957,0 0.0095,0 0,-0.03337 0,-0.03957 0.006,0 0.03134,0.0077 0.03957,0 0.0082,-0.0077 0.03261,-0.03957 0.03957,-0.03957 0.0077,0 0.03957,0.0032 0.03957,0 0,-0.0032 -0.01346,-0.03426 0,-0.03957 0.01346,-0.0053 0.03957,0.0032 0.03957,0 0.0077,0 0.03957,0.0038 0.03957,0 0.0058,0 0,-0.03577 0,-0.03957 0,-0.0038 0.03185,0 0.03957,0 0.0077,0 0.03957,0.0038 0.03957,0 0,-0.0038 -0.0058,-0.03957 0,-0.03957 0,-0.0038 0.03185,0 0.03957,0 0.0068,0 0.034,-0.03185 0.03957,-0.03957 0.008,0 0.034,0.0077 0.03957,0 0.0056,-0.0077 0.03273,-0.03957 0.03957,-0.03957 0.0087,0 0.034,-0.03185 0.03957,-0.03957 0.006,0 0.034,0.0077 0.03957,0 0.0056,-0.0077 0.0316,-0.03957 0.03957,-0.03957 0.0056,-0.0077 0.03362,0 0.03957,0 0.006,0 -0.0072,-0.02995 0,-0.03957 0.0072,-0.0096 0.03413,0 0.03957,0 0.0054,0 0.03134,-0.03185 0.03957,-0.03957 0,-0.0038 0.03375,0 0.03957,0 0,-0.0038 -0.0068,-0.03957 0,-0.03957 0.0068,0 0.034,0.0077 0.03957,0 0.008,0 0.034,-0.03185 0.03957,-0.03957 0.0056,-0.0077 0.03362,0 0.03957,0 0.0056,-0.0077 0.03463,-0.03957 0.03957,-0.03957 0.01114,0 0.03957,-0.03058 0.03957,-0.03957 0,-0.0071 0.02919,2.63e-4 0.03957,0 0.0048,-1.14e-4 0.02372,-0.02419 0.03957,-0.03957 0.01585,-0.01545 0.034,-0.03957 0.03957,-0.03957 0.0056,0 0.02478,0.01539 0.03957,0 0.01479,-0.01545 -0.0024,-0.03957 0,-0.03957 0.0056,0 0.03957,-0.03413 0.03957,-0.03957 0,-0.0052 0.07395,-0.03957 0.07915,-0.03957 0.0089,0 0.03957,-0.06927 0.03957,-0.07915 0,-0.0058 0.03552,-0.03957 0.03957,-0.03957 0.01203,0 0.03957,-0.02588 0.03957,-0.03957 0.0077,-0.0056 0,-0.03273 0,-0.03957 0,-0.0068 0.03375,0 0.03957,0 0.007,0 0,-0.02558 0,-0.03957 0.0038,0 0,-0.02805 0,-0.03957 0.0042,0 0.03957,-0.03018 0.03957,-0.07915 0,-0.04897 -0.03527,-0.07915 -0.03957,-0.07915 -0.0038,0 0,-0.02805 0,-0.03957 -0.0038,0 0,-0.03185 0,-0.03957 -0.0058,0 -0.03957,0.0058 -0.03957,0 0,-0.0135 0.01577,-0.06448 0,-0.07915 -0.0068,-0.0062 -0.03957,0.0066 -0.03957,0 0,-0.0114 0.0086,-0.03957 0,-0.03957 -0.0023,0 -0.01878,-0.01938 -0.03957,-0.03957 -0.02079,-0.0202 -0.05787,-0.05991 -0.07915,-0.07915 -0.02128,-0.01925 -0.0394,-0.03476 -0.03957,-0.03957 -1.78e-4,-0.0048 -0.03159,0 -0.03957,0 -0.008,0 -0.02478,-0.02419 -0.03957,-0.03957 -0.01479,-0.01545 -0.03337,-0.03957 -0.03957,-0.03957 -0.0094,-0.0094 -0.03084,-0.03679 -0.03957,-0.03957 -0.0087,-0.0028 -0.03337,0.0071 -0.03957,0 -0.0054,0 -0.034,-0.03185 -0.03957,-0.03957 -0.01384,-2.91e-4 -0.03957,-0.02932 -0.03957,-0.03957 0,-0.0044 -0.03185,0 -0.03957,0 -0.0058,0 -0.03957,-0.03577 -0.03957,-0.03957 0,-0.0038 -0.03185,0 -0.03957,0 -0.0058,0 -0.03957,-0.03577 -0.03957,-0.03957 0,-0.0038 -0.03185,0 -0.03957,0 -0.0058,0 -0.03957,-0.03577 -0.03957,-0.03957 0,-0.0038 -0.03185,0 -0.03957,0 0,-0.0038 0.0058,-0.03957 0,-0.03957 0,-0.0038 -0.03185,0 -0.03957,0 0,-0.0058 -0.03185,0 -0.03957,0 -0.0077,0 0,-0.03577 0,-0.03957 -0.0087,0 -0.034,0.0077 -0.03957,0 -0.0068,0 -0.03957,-0.03577 -0.03957,-0.03957 -0.0096,0 -0.03957,0.0038 -0.03957,0 -0.0068,0 -0.034,-0.03185 -0.03957,-0.03957 -0.0087,0 -0.03957,0.0038 -0.03957,0 -0.0068,0 -0.034,-0.03185 -0.03957,-0.03957 -0.0087,0 -0.03957,0.0038 -0.03957,0 0,-0.0038 -0.03185,-0.03957 -0.03957,-0.03957 -0.0058,0 -0.03957,0.0038 -0.03957,0 0,-0.0038 0.0077,-0.03957 0,-0.03957 0,-0.0038 -0.03185,0 -0.03957,0 -0.0096,0 -0.03927,0.0048 -0.03957,0 -0.0085,0 -0.034,-0.0077 -0.03957,0 -0.0056,0.0077 -0.03274,0 -0.03957,0 z m 0.03957,0.751887 c 0.01051,-0.01456 0.07915,-0.01333 0.07915,0 0,0.0038 0.03375,0 0.03957,0 0.0058,0 0,0.03577 0,0.03957 0.0051,0 0.03134,-0.0077 0.03957,0 0.0082,0.0077 -0.006,0.03957 0,0.03957 0.006,0 0.03957,-0.0038 0.03957,0 0.0056,0.0077 0.03273,0.03957 0.03957,0.03957 0,0.0092 0.03058,0 0.03957,0 0.0037,0 -0.0048,0.02805 0,0.03957 0.0048,0.01152 0.03615,0.03957 0.03957,0.03957 0.0038,0 0,0.01841 0,0.03957 0,0.02116 0.0038,0.03957 0,0.03957 -0.0038,0 0,0.02894 0,0.03957 -0.0077,0.0056 -0.03957,0.03274 -0.03957,0.03957 -0.008,0 -0.03957,0.03248 -0.03957,0.03957 0,0.0056 -0.03387,0.03957 -0.03957,0.03957 -0.0024,0 -0.02881,0.02805 -0.03957,0.03957 -0.0053,0 -0.034,0.03185 -0.03957,0.03957 -0.0041,0 -0.034,-0.0077 -0.03957,0 -0.0056,0.0077 0.006,0.03957 0,0.03957 -0.006,0 -0.034,-0.0077 -0.03957,0 -0.0087,0 -0.03957,0.03539 -0.03957,0.03957 0,0.01114 -0.02704,0 -0.03957,0 0,0.0038 0.0058,0.03957 0,0.03957 0,0.0038 -0.03273,0 -0.03957,0 -0.0056,0.0077 -0.0316,0.03957 -0.03957,0.03957 -0.008,0 -0.034,-0.0077 -0.03957,0 -0.006,0 -0.034,0.03185 -0.03957,0.03957 -0.008,0 -0.034,-0.0077 -0.03957,0 -0.0056,0.0077 0.0068,0.03957 0,0.03957 -0.0068,0 -0.03957,-0.0058 -0.03957,0 -0.0096,0 -0.03957,0.03577 -0.03957,0.03957 -0.0068,0 -0.034,-0.0077 -0.03957,0 -0.0087,0 -0.03957,0.03577 -0.03957,0.03957 -0.0056,0.0077 -0.03084,0 -0.03957,0 -0.0087,0 -0.03957,0.03577 -0.03957,0.03957 0,0.0038 -0.03375,0 -0.03957,0 0,0.0038 0.0077,0.03957 0,0.03957 0,0.0038 -0.03185,0 -0.03957,0 0,0.0038 -0.03185,0 -0.03957,0 0,0.0038 0.0058,0.03957 0,0.03957 0,0.0058 -0.03185,0 -0.03957,0 -0.0077,0 -0.03957,0.03653 -0.03957,0.03957 -0.01346,0.0049 -0.03957,-0.0035 -0.03957,0 0,0.0037 0.0077,0.03957 0,0.03957 -0.0077,0 -0.03957,-0.0038 -0.03957,0 -0.0087,0 -0.034,-0.0077 -0.03957,0 -0.0056,0.0077 0.0068,0.03957 0,0.03957 -0.0068,0 -0.03957,-0.0038 -0.03957,0 -0.0087,0 -0.034,-0.0077 -0.03957,0 -0.0056,0.0077 0.0068,0.03957 0,0.03957 -0.0068,0 -0.03957,-0.0038 -0.03957,0 -0.01013,0 -0.03957,-0.0056 -0.03957,0 0,0.0053 0.01152,0.03476 0,0.03957 -0.01152,0.0048 -0.03957,-0.0034 -0.03957,0 -0.0096,0 -0.03957,-0.0038 -0.03957,0 0,0.0038 0.006,0.03957 0,0.03957 -0.0082,0.0077 -0.03261,0 -0.03957,0 0,0.0038 -0.03185,0.03957 -0.03957,0.03957 -0.0058,0 -0.03957,-0.0038 -0.03957,0 -0.0077,0 0,0.03577 0,0.03957 0,0.0038 -0.03185,0 -0.03957,0 -0.0077,0 -0.03957,-0.0038 -0.03957,0 -0.0058,0 0,0.03577 0,0.03957 0,0.0038 -0.03185,0 -0.03957,0 -0.0077,0 -0.03957,-0.0038 -0.03957,0 0,0.0038 0.0096,0.03957 0,0.03957 -0.0096,0 -0.03957,-0.0038 -0.03957,0 -0.006,0 -0.03134,-0.0077 -0.03957,0 -0.0082,0.0077 0.007,0.03957 0,0.03957 -0.007,0 -0.03957,-0.0038 -0.03957,0 0,0.0038 -0.03083,0 -0.03957,0 -0.0087,0 0.0056,0.03185 0,0.03957 -0.0056,0.0077 -0.03274,0 -0.03957,0 0,0.0038 -0.02995,0 -0.03957,0 -0.0096,0 0,0.03577 0,0.03957 -0.0068,0 -0.034,-0.0077 -0.03957,0 -0.0056,0.0077 -0.03084,0.03957 -0.03957,0.03957 -0.0077,0 -0.03957,-0.0038 -0.03957,0 -0.006,0 -0.03134,0.03185 -0.03957,0.03957 -0.007,0 -0.03957,-0.0038 -0.03957,0 -0.0077,0 0,0.03577 0,0.03957 0,0.0038 -0.03083,0 -0.03957,0 -0.0056,0.0077 -0.03274,0.03957 -0.03957,0.03957 0,0.0038 -0.02995,0 -0.03957,0 0,0.0038 -0.03185,0 -0.03957,0 0,0.0038 0.0058,0.03957 0,0.03957 0,0.0038 -0.03185,0 -0.03957,0 0,0.0058 -0.03185,0 -0.03957,0 -0.0077,0 0,0.03577 0,0.03957 -0.0077,0 -0.03957,-0.003 -0.03957,0 -0.01346,0.0049 -0.03957,0.03603 -0.03957,0.03957 -0.0077,0 -0.03957,-0.0038 -0.03957,0 0,0.0038 -0.03185,0.03957 -0.03957,0.03957 0,0.0038 -0.02995,0 -0.03957,0 -0.0077,0 -0.03957,-0.0038 -0.03957,0 0,0.0038 0.0077,0.03957 0,0.03957 0,0.0038 -0.02995,0 -0.03957,0 0,0.0038 -0.03185,0 -0.03957,0 -0.0077,0 0,0.03577 0,0.03957 -0.0077,0 -0.03957,-0.0058 -0.03957,0 -0.0096,0 -0.03957,-0.0038 -0.03957,0 0,0.0038 0.0077,0.03957 0,0.03957 0,0.0038 -0.02611,0 -0.03957,0 -0.01346,0 -0.03957,-0.0038 -0.03957,0 0,0.0038 -0.03375,0.03957 -0.03957,0.03957 -0.01696,0 -0.03957,-0.0058 -0.03957,0 0,0.0029 -0.02611,0 -0.03957,0 -0.01347,0 0,0.03577 0,0.03957 0,0.0038 -0.02805,0 -0.03957,0 -0.01152,0 -0.03957,-0.0038 -0.03957,0 0,0.0038 -0.02226,0 -0.03957,0 -0.01731,0 -0.03957,0.03577 -0.03957,0.03957 0,0.0038 -0.01841,0 -0.03957,0 -0.02116,0 -0.03957,-0.0038 -0.03957,0 0,0.0044 -0.0371,0 -0.118719,0 -0.08162,0 -0.118719,0.0044 -0.118719,0 0,-0.0038 -0.02226,0 -0.03957,0 -0.01731,0 -0.03957,0.0038 -0.03957,0 0,-0.0038 -0.02995,-0.03957 -0.03957,-0.03957 -0.01152,0 -0.03957,0.0038 -0.03957,0 -0.0096,0 -0.03957,0.0038 -0.03957,0 0,-0.0038 0.0077,-0.03957 0,-0.03957 -0.0077,0 -0.03957,0.0038 -0.03957,0 0,-0.0038 -0.02995,0 -0.03957,0 -0.0096,0 0,-0.03577 0,-0.03957 0,-0.0038 -0.03185,0 -0.03957,0 -0.0077,0 -0.03957,0.0038 -0.03957,0 -0.0058,0 0,-0.03375 0,-0.03957 0.0087,0 0.034,0.0077 0.03957,0 0.0056,-0.0077 -0.0068,-0.03957 0,-0.03957 0.0068,0 0.03957,0.0038 0.03957,0 0.0096,0 0.03957,0.0038 0.03957,0 0.0068,0 0.034,-0.03185 0.03957,-0.03957 0.0095,0 0.03957,0.0062 0.03957,0 0,-0.0058 -0.0077,-0.03957 0,-0.03957 0,-0.0038 0.03185,0 0.03957,0 0.0058,0 0.03957,0.0038 0.03957,0 0,-0.0038 -0.0077,-0.03957 0,-0.03957 0,-0.0038 0.03185,0 0.03957,0 0,-0.003 0.02611,-0.03476 0.03957,-0.03957 0,-0.0037 0.03185,0 0.03957,0 0.0087,0 0.034,-0.03185 0.03957,-0.03957 0.0056,-0.0077 0.03274,0 0.03957,0 0.0096,0 0.03957,-0.03577 0.03957,-0.03957 0,-0.01076 0.02445,-0.03929 0.03957,-0.03957 0.0067,-1.27e-4 0.03957,0.0038 0.03957,0 0,-0.003 0.0261,-0.03476 0.03957,-0.03957 0.01346,-0.0049 0.03957,0.0035 0.03957,0 0,-0.0038 0.03084,0 0.03957,0 0.0087,0 -0.0056,-0.03185 0,-0.03957 0.0056,-0.0077 0.03274,0 0.03957,0 0,-0.0038 0.03185,-0.03957 0.03957,-0.03957 0.0087,0 0.034,0.0077 0.03957,0 0.0056,-0.0077 0.03274,-0.03957 0.03957,-0.03957 0.0096,0 0.03957,0.0038 0.03957,0 0.006,0 0.03134,-0.03185 0.03957,-0.03957 0.007,0 0.03957,0.0038 0.03957,0 0,-0.0038 -0.0077,-0.03957 0,-0.03957 0,-0.0038 0.03375,0 0.03957,0 0.0077,0 0.03957,0.0038 0.03957,0 0,-0.0038 -0.0077,-0.03957 0,-0.03957 0,-0.0038 0.03084,0 0.03957,0 0.0056,-0.0077 0.03273,-0.03957 0.03957,-0.03957 0,-0.0038 0.02995,0 0.03957,0 0,-0.0058 0.03362,-0.03957 0.03957,-0.03957 0.0082,-0.0077 0.03261,0 0.03957,0 0,-0.0038 0.03185,-0.03957 0.03957,-0.03957 0.0077,0 0.03957,0.0038 0.03957,0 0,-0.0038 0.03185,-0.03957 0.03957,-0.03957 0.0077,0 0.03957,0.0038 0.03957,0 0.0058,0 0,-0.03577 0,-0.03957 0.0077,0 0.03957,0.0038 0.03957,0 0.0077,0 0.03957,0.0038 0.03957,0 0.01549,0 0.03957,-0.02729 0.03957,-0.03957 0,-0.0038 0.02995,-0.03957 0.03957,-0.03957 0,-0.0038 0.03362,0 0.03957,0 0.0082,-0.0077 0.03261,-0.03957 0.03957,-0.03957 0,-0.0038 0.03185,0 0.03957,0 0.0058,0 0.03957,-0.03577 0.03957,-0.03957 0,-0.0038 0.03185,0 0.03957,0 0.0077,0 0.03957,-0.03577 0.03957,-0.03957 0,-0.0038 0.03185,0 0.03957,0 0,-0.0038 -0.0077,-0.03957 0,-0.03957 0.0077,0 0.03957,0.0058 0.03957,0 0.0087,0 0.034,0.0077 0.03957,0 0.0056,-0.0077 -0.0068,-0.03957 0,-0.03957 0.0068,0 0.03957,0.0038 0.03957,0 0,-0.0038 0.03274,0 0.03957,0 0.0068,0 -0.0056,-0.03185 0,-0.03957 0.0056,-0.0077 0.03083,0 0.03957,0 0,-0.0038 0.03185,-0.03957 0.03957,-0.03957 0.0058,0 0.03957,0.0038 0.03957,0 0,-0.0038 0.03185,-0.03957 0.03957,-0.03957 0.0077,0 0.03957,0.0049 0.03957,0 0,-0.0051 -0.01347,-0.03476 0,-0.03957 0.01347,-0.0049 0.03957,0.0035 0.03957,0 0.0077,0 0.03957,0.0038 0.03957,0 0,-0.0038 -0.0087,-0.03957 0,-0.03957 0.0087,0 0.034,0.0077 0.03957,0 0.0068,0 0.03957,0.0038 0.03957,0 0,-0.0038 -0.0096,-0.03957 0,-0.03957 0,-0.0038 0.03274,0 0.03957,0 0.0056,-0.0077 0.03084,-0.03957 0.03957,-0.03957 0,-0.0038 0.03185,0 0.03957,0 0.0058,0 0.03957,-0.03577 0.03957,-0.03957 0,-0.0058 0.03185,0 0.03957,0 0,-0.0038 -0.0087,-0.03957 0,-0.03957 0.0087,0 0.034,0.0077 0.03957,0 0.0056,-0.0077 0.03273,0 0.03957,0 0,-0.0038 -0.0077,-0.03957 0,-0.03957 0.0077,0 0.03957,0.0038 0.03957,0 0.0087,0 0.034,0.0077 0.03957,0 0.0056,-0.0077 -0.0068,-0.03957 0,-0.03957 0.0068,0 0.03957,0.0038 0.03957,0 0.0096,0 0.03957,0.0038 0.03957,0 0.0058,0 0,-0.03577 0,-0.03957 0.0058,0 0.03957,0.0038 0.03957,0 0.01089,0 0.03957,0.0066 0.03957,0 0,-0.0058 -0.0077,-0.03957 0,-0.03957 0,-0.003 0.0261,0.0048 0.03957,0 0.01346,-0.0049 0,-0.03603 0,-0.03957 0,-0.0037 0.03185,0 0.03957,0 0,-0.0038 0.03084,0 0.03957,0 0.0056,-0.0077 0.03273,-0.03957 0.03957,-0.03957 0,-0.0038 0.02995,0 0.03957,0 0.0068,0 0.034,-0.03185 0.03957,-0.03957 0.0056,-0.0077 0.03084,0 0.03957,0 0,-0.0038 -0.0077,-0.03957 0,-0.03957 0.0077,0 0.03957,0.0038 0.03957,0 0.0022,-0.0058 0.03362,0 0.03957,0 0.006,0 0,-0.03577 0,-0.03957 0.0077,0 0.03957,0.0038 0.03957,0 0,-0.003 0.02611,-0.03476 0.03957,-0.03957 0.01346,-0.0049 0.03957,0.0035 0.03957,0 0,-0.0038 0.03084,-0.03957 0.03957,-0.03957 z m 2.453526,0.593596 c -0.0077,0 -0.03957,0.03577 -0.03957,0.03957 0,0.003 -0.02611,-0.0048 -0.03957,0 -0.01346,0.0049 0,0.03603 0,0.03957 0,0.0037 -0.03185,0 -0.03957,0 0,0.0038 -0.03083,0 -0.03957,0 -0.0087,0 0.0056,0.03185 0,0.03957 -0.0056,0.0077 -0.03274,0 -0.03957,0 0,0.0038 -0.02995,0 -0.03957,0 0,0.0038 0.0061,0.03957 0,0.03957 -0.01254,0 -0.03957,-0.01114 -0.03957,0 0,0.0041 -0.02995,0 -0.03957,0 -0.0096,0 0,0.03577 0,0.03957 -0.0077,0 -0.03957,-0.003 -0.03957,0 -0.01346,0.0049 -0.03957,0.03603 -0.03957,0.03957 -0.0077,0 -0.03957,-0.0038 -0.03957,0 0,0.0038 -0.03375,0.03957 -0.03957,0.03957 -0.0077,0 -0.03957,-0.0038 -0.03957,0 0,0.0038 -0.03083,0.03957 -0.03957,0.03957 -0.0056,0.0077 -0.03274,0 -0.03957,0 -0.0068,0 0,0.03577 0,0.03957 0,0.0038 -0.02995,0 -0.03957,0 -0.0051,0 -0.03134,0.03185 -0.03957,0.03957 -0.0082,0.0077 -0.03172,0 -0.03957,0 -0.0077,0 -0.03957,-0.003 -0.03957,0 0,0.003 0.01346,0.03476 0,0.03957 -0.01346,0.0049 -0.03957,-0.0035 -0.03957,0 -0.0077,0 -0.03957,0.03577 -0.03957,0.03957 -0.0087,0 -0.034,-0.0077 -0.03957,0 -0.0068,0 -0.03957,0.03577 -0.03957,0.03957 -0.0096,0 -0.03957,-0.0038 -0.03957,0 0,0.01076 -0.02445,0.03929 -0.03957,0.03957 0,0.0038 -0.03185,0 -0.03957,0 -0.0077,0 0,0.03577 0,0.03957 -0.0051,0 -0.03134,-0.0077 -0.03957,0 -0.0082,0.0077 -0.03172,0 -0.03957,0 -0.0079,0 0,0.03577 0,0.03957 -0.0077,0 -0.03957,-0.0038 -0.03957,0 0,0.0038 -0.03185,0 -0.03957,0 -0.0077,0 0,0.03577 0,0.03957 -0.0077,0 -0.03957,-0.0038 -0.03957,0 -0.0087,0 -0.034,0.03185 -0.03957,0.03957 -0.0068,0 -0.03957,-0.0058 -0.03957,0 -0.0096,0 -0.03957,0.03577 -0.03957,0.03957 -0.0056,0.0077 -0.03084,0 -0.03957,0 -0.0087,0 -0.03957,0.03577 -0.03957,0.03957 -0.0058,0 -0.03957,-0.0038 -0.03957,0 0,0.0038 0.0077,0.03957 0,0.03957 0,0.0038 -0.03185,0 -0.03957,0 0,0.0038 -0.03185,0 -0.03957,0 0,0.0038 0.0058,0.03957 0,0.03957 0,0.0038 -0.03185,0 -0.03957,0 -0.0077,0 -0.03957,-0.0038 -0.03957,0 0,0.0038 0.0096,0.03957 0,0.03957 -0.0096,0 -0.03957,-0.0042 -0.03957,0 0,0.01114 0.01254,0.03957 0,0.03957 -0.0061,0 -0.03957,-0.0038 -0.03957,0 -0.0096,0 -0.03957,-0.0034 -0.03957,0 -0.01152,0.0048 -0.03957,0.03615 -0.03957,0.03957 -0.0096,0 -0.03957,-0.0038 -0.03957,0 0,0.0038 -0.03375,0.03957 -0.03957,0.03957 -0.0077,0 -0.03957,-0.0038 -0.03957,0 -0.0077,0 0,0.03577 0,0.03957 0,0.0038 -0.03185,0 -0.03957,0 0,0.0058 -0.03185,0.03957 -0.03957,0.03957 0,0.0038 -0.03185,0 -0.03957,0 -0.0087,0 -0.034,0.03185 -0.03957,0.03957 -0.0056,0.0077 -0.03274,0 -0.03957,0 -0.0087,0 -0.034,0.03185 -0.03957,0.03957 -0.0068,0 -0.03957,-0.0038 -0.03957,0 -0.0096,0 -0.03957,0.03577 -0.03957,0.03957 0,0.0038 -0.03375,0 -0.03957,0 -0.0077,0 -0.03957,0.03577 -0.03957,0.03957 0,0.0058 -0.03185,0 -0.03957,0 -0.0077,0 0,0.03577 0,0.03957 -0.0058,0 -0.03957,-0.0038 -0.03957,0 0,0.0038 -0.03185,0 -0.03957,0 -0.0077,0 0,0.03577 0,0.03957 -0.0087,0 -0.034,-0.0077 -0.03957,0 -0.0056,0.0077 -0.03274,0 -0.03957,0 -0.0068,0 0,0.03577 0,0.03957 -0.0096,0 -0.03957,-0.0038 -0.03957,0 0,0.0038 -0.03375,0.03957 -0.03957,0.03957 -0.0096,0 -0.03957,-0.0038 -0.03957,0 -0.0068,0 -0.03235,0.02995 -0.03957,0.03957 -0.0072,0 -0.03957,-0.0038 -0.03957,0 -0.0077,0 0,0.03577 0,0.03957 0,0.0038 -0.03083,0 -0.03957,0 -0.0056,0.0077 -0.03273,0.03957 -0.03957,0.03957 0,0.0038 -0.03084,0 -0.03957,0 -0.0056,0.0077 -0.03273,0.03957 -0.03957,0.03957 0,0.0038 -0.02995,0 -0.03957,0 0,0.0038 -0.03185,0 -0.03957,0 0,0.0038 0.0058,0.03957 0,0.03957 0,0.0038 -0.03375,0 -0.03957,0 0,0.0066 0.01089,0.03957 0,0.03957 -0.0096,0 -0.03957,-0.0038 -0.03957,0 -0.006,0 -0.03134,-0.0077 -0.03957,0 -0.0082,0.0077 0.007,0.03957 0,0.03957 -0.007,0 -0.03957,-0.0038 -0.03957,0 0,0.0038 -0.03083,0 -0.03957,0 -0.0087,0 -0.034,0.03185 -0.03957,0.03957 0,0.0038 -0.03084,0 -0.03957,0 -0.0087,0 0.0056,0.03185 0,0.03957 -0.0056,0.0077 -0.03273,0 -0.03957,0 0,0.0038 -0.02995,0 -0.03957,0 -0.0096,0 0,0.03577 0,0.03957 0,0.0038 -0.03185,0 -0.03957,0 0,0.0051 -0.0261,-0.0053 -0.03957,0 -0.01346,0.0053 0,0.03641 0,0.03957 0,0.0032 -0.03185,0 -0.03957,0 -0.0077,0 -0.03957,0.03577 -0.03957,0.03957 -0.0077,0 -0.03957,-0.0038 -0.03957,0 -0.0077,0 -0.03957,0.03577 -0.03957,0.03957 -0.0087,0 -0.034,-0.0077 -0.03957,0 -0.0068,0 -0.03957,0.03577 -0.03957,0.03957 -0.0079,0 -0.03033,-0.0086 -0.03957,0 -0.03073,0.0288 -0.02518,0.03957 -0.03957,0.03957 0,0.0038 -0.03362,0 -0.03957,0 -0.006,0 0.0082,0.03185 0,0.03957 -0.0082,0.0077 -0.03261,0 -0.03957,0 0,0.0038 -0.03185,0 -0.03957,0 -0.0077,0 0,0.03577 0,0.03957 -0.0077,0 -0.03957,-0.0038 -0.03957,0 0,0.0038 -0.03185,0.03957 -0.03957,0.03957 -0.0077,0 -0.03957,-0.0038 -0.03957,0 0,0.0038 -0.03185,0.03957 -0.03957,0.03957 -0.0077,0 -0.03957,-0.0058 -0.03957,0 -0.0096,0 0,0.03615 0,0.03957 0,0.0034 -0.02805,-0.0048 -0.03957,0 -0.01152,0.0048 -0.03957,-0.0034 -0.03957,0 0,0.0034 0.0096,0.03957 0,0.03957 0,0.0038 -0.03274,0 -0.03957,0 -0.0056,0.0077 -0.03083,0.03957 -0.03957,0.03957 0,0.0038 -0.03185,0 -0.03957,0 -0.0077,0 -0.03957,-0.0038 -0.03957,0 0,0.0038 0.0058,0.03957 0,0.03957 0,0.0038 -0.03185,0 -0.03957,0 -0.0077,0 -0.03957,0.03577 -0.03957,0.03957 -0.0068,0 -0.01642,-0.02075 -0.03957,0 -0.0053,0.0048 0.0061,0.03957 0,0.03957 -0.0061,0 -0.03957,-0.0038 -0.03957,0 -0.0096,0 -0.03957,-0.0038 -0.03957,0 -0.0051,0 0.0082,0.03185 0,0.03957 -0.0082,0.0077 -0.03172,0 -0.03957,0 0,0.0038 -0.03274,0 -0.03957,0 -0.0068,0 0.0056,0.03185 0,0.03957 -0.0056,0.0077 -0.03083,0 -0.03957,0 0,0.0038 -0.03185,0 -0.03957,0 -0.0077,0 0,0.03577 0,0.03957 0,0.0038 -0.03159,0 -0.03957,0 0,0.0041 -0.03185,0.03957 -0.03957,0.03957 0,0.0038 -0.02995,0 -0.03957,0 0,0.0034 0.01152,0.03476 0,0.03957 -0.01152,0.0048 -0.03957,-0.0034 -0.03957,0 -0.0077,0 -0.03957,-0.0035 -0.03957,0 -0.0076,0.002 -0.01178,0.03908 0,0.03957 0.01203,5.07e-4 0.03957,-0.0066 0.03957,0 0.0068,0 0.034,-0.0077 0.03957,0 0.0056,0.0077 -0.0087,0.03957 0,0.03957 0.0087,0 0.03957,-0.0038 0.03957,0 0,0.0038 0.03185,0.03957 0.03957,0.03957 0.0058,0 0.03957,-0.0038 0.03957,0 0,0.0038 0.03185,0.03957 0.03957,0.03957 0,0.0032 0.0261,-0.0053 0.03957,0 0,0.0032 0.03185,0.03957 0.03957,0.03957 0.0072,0 0.03235,-0.0096 0.03957,0 0.0072,0.0096 0.03274,0.03957 0.03957,0.03957 0.0096,0 0.03957,-0.0038 0.03957,0 0,0.0038 -0.0068,0.03957 0,0.03957 0.0068,0 0.034,-0.0077 0.03957,0 0.0087,0 0.03957,-0.0038 0.03957,0 0,0.0038 -0.0077,0.03957 0,0.03957 0,0.0037 0.02611,-0.0048 0.03957,0 0.01347,0.0048 0.03957,0.03653 0.03957,0.03957 0,0.0038 0.03172,0 0.03957,0 0.0082,0.0077 0.03451,0.03957 0.03957,0.03957 0,0.0058 0.03185,0 0.03957,0 0,0.0038 -0.0087,0.03957 0,0.03957 0.0087,0 0.034,-0.0077 0.03957,0 0.0056,0.0077 0.03274,0 0.03957,0 0.0068,0 0,0.03577 0,0.03957 0.0096,0 0.03957,-0.0038 0.03957,0 0,0.0077 0.06186,0.03957 0.07915,0.03957 0.0077,0 0.03957,-0.0038 0.03957,0 0.0096,0 0.03957,0.03577 0.03957,0.03957 0,0.0038 0.02995,0 0.03957,0 0,0.0038 0.02805,0.03957 0.03957,0.03957 0,0.0066 0.02868,0 0.03957,0 0,0.0038 0.02805,0 0.03957,0 0.01152,0 0,0.03577 0,0.03957 0,0.0038 0.02805,0 0.03957,0 0,0.0038 0.02611,0 0.03957,0 0.01346,0 0.03957,-0.0038 0.03957,0 0.01346,0 0.03957,0.03577 0.03957,0.03957 0.01152,0 0.03957,-0.0038 0.03957,0 0,0.0038 0.02226,0 0.03957,0 0,0.0061 0.03155,0.03109 0.118719,0.03957 0.02214,0.0022 0.03957,-0.0035 0.03957,0 0,0.0034 0.01553,-5.7e-5 0.03957,0 0.02405,0 0.07332,-0.0037 0.07915,0 0.01446,0.0094 0.474876,0.0094 0.474876,0 0,-0.0041 0.0465,0 0.07915,0 0.03077,0 0.03957,0.0035 0.03957,0 0,-0.0034 0.01745,0.0022 0.03957,0 0.08718,-0.0085 0.11872,-0.03349 0.11872,-0.03957 0,-0.0035 0.02226,0 0.03957,0 0.01731,0 0.03957,0.0038 0.03957,0 0.01545,0 0.03957,0.0038 0.03957,0 0,-0.0038 0.02226,0 0.03957,0 0.01731,0 0.03957,-0.03577 0.03957,-0.03957 0.01346,0 0.03957,0.0038 0.03957,0 0.01152,0 0.03957,0.0038 0.03957,0 0,-0.0038 0.02611,-0.03957 0.03957,-0.03957 0,-0.0038 0.02805,0 0.03957,0 0,-0.0058 0.03375,0 0.03957,0 0.01696,0 0.03957,-0.03375 0.03957,-0.03957 0,-0.0029 0.02611,0 0.03957,0 0,-0.0038 0.03185,0 0.03957,0 0.0077,0 0,-0.03577 0,-0.03957 0,-0.0038 0.02995,0 0.03957,0 0,-0.0038 0.02805,0 0.03957,0 0,-0.0038 0.02995,-0.03957 0.03957,-0.03957 0.0077,0 0.03957,0.0038 0.03957,0 0,-0.0038 0.03083,-0.03957 0.03957,-0.03957 0.0056,-0.0077 0.03273,0 0.03957,0 0,-0.0038 0.02995,-0.03957 0.03957,-0.03957 0,-0.0058 0.03185,0 0.03957,0 0,-0.0038 -0.0096,-0.03957 0,-0.03957 0.0096,0 0.03957,0.0038 0.03957,0 0.0077,0 0.03957,0.0038 0.03957,0 0,-0.0038 0.03083,-0.03957 0.03957,-0.03957 0.0056,-0.0077 0.03274,0 0.03957,0 0,-0.0038 -0.0058,-0.03957 0,-0.03957 0.0058,0 0.03957,0.0038 0.03957,0 0,-0.0038 0.03274,0 0.03957,0 0.0068,0 -0.0056,-0.03185 0,-0.03957 0.0056,-0.0077 0.03248,0 0.03957,0 0.0142,0 0.03957,-0.02767 0.03957,-0.03957 0,-0.0038 0.03375,0 0.03957,0 0,-0.0035 -0.0079,-0.03704 0,-0.03957 0.0079,-0.0024 0.0302,0.0094 0.03957,0 0.0094,-0.0094 0.03552,-0.03957 0.03957,-0.03957 0.0061,0 0.02881,-0.02805 0.03957,-0.03957 0.01076,-0.01152 0.03704,0 0.03957,0 0.0057,0 0.03957,-0.034 0.03957,-0.03957 0,-0.0053 0.03425,-0.03957 0.03957,-0.03957 0.009,0 0.03957,-0.06927 0.03957,-0.07915 0.01127,0 0.03957,-0.02742 0.03957,-0.03957 0,-0.006 0.03641,-0.03957 0.03957,-0.03957 0.0053,-0.01346 -0.0051,-0.03957 0,-0.03957 0.0051,0 0.03957,0.0077 0.03957,0 0,-0.0077 -0.0038,-0.03957 0,-0.03957 0.0038,0 0,-0.03185 0,-0.03957 0,-0.0077 0.03577,0 0.03957,0 0,-0.01152 -0.0038,-0.03957 0,-0.03957 0.0038,0 0,-0.02599 0,-0.03957 0.0084,-0.0032 0.03957,-0.02719 0.03957,-0.07915 0,-0.05381 -0.03096,-0.07915 -0.03957,-0.07915 0,-0.01152 0.0038,-0.03957 0,-0.03957 l 0,-0.03957 0.237438,0 c 0.149239,0 0.197865,0.0046 0.197865,0 0,-0.0042 0.03251,0 0.07915,0 0.04664,0 0.07915,0.0042 0.07915,0 0,-0.0039 0.05116,0 0.07915,0 0.02799,0 0.03957,-0.03552 0.03957,-0.03957 0,-0.0038 0.01626,0 0.03957,0 0.02333,0 0.03957,0.0039 0.03957,0 0,-0.0038 0.02226,0 0.03957,0 0,-0.0038 0.02226,0 0.03957,0 0.01731,0 0.03957,-0.03577 0.03957,-0.03957 0,-0.0038 0.02805,0 0.03957,0 0,-0.0038 0.02611,0 0.03957,0 0,-0.0038 0.0316,-0.03957 0.03957,-0.03957 0.0058,-0.0058 0.0321,0 0.03957,0 0,-0.0038 0.02611,0 0.03957,0 0.01347,0 0.03957,-0.03577 0.03957,-0.03957 0,-0.0038 0.03185,0 0.03957,0 0.0096,0 0.03957,-0.03577 0.03957,-0.03957 0.0077,0 0.03957,0.0038 0.03957,0 0,-0.0038 0.02995,-0.03957 0.03957,-0.03957 0.0077,0 0.03957,0.0038 0.03957,0 0.0096,0 0.03957,0.0038 0.03957,0 0,-0.0038 -0.0077,-0.03957 0,-0.03957 0,-0.0038 0.03185,0 0.03957,0 0.0058,0 0.03957,-0.03375 0.03957,-0.03957 0,-0.0038 0.03185,0 0.03957,0 0,-0.0038 -0.0058,-0.03957 0,-0.03957 0.0058,0 0.03957,0.0038 0.03957,0 0,-0.0032 0.0261,0.0053 0.03957,0 0.01346,-0.0053 0.03957,-0.03641 0.03957,-0.03957 0.0061,0 0.02881,0.01152 0.03957,0 0.01076,-0.01152 -0.0072,-0.03957 0,-0.03957 0.0072,0 0.034,0.0077 0.03957,0 0.0056,-0.0077 0.03274,-0.03957 0.03957,-0.03957 0.0042,0 0.02881,-0.02805 0.03957,-0.03957 0.01076,-0.01152 0.03337,0 0.03957,0 0,-0.0038 -0.0041,-0.03957 0,-0.03957 0.0041,0 0.01692,-0.01649 0.03957,-0.03957 0.02266,-0.02309 0.03729,-0.03957 0.03957,-0.03957 0.0056,0 0.03957,-0.034 0.03957,-0.03957 0,-0.0024 0.02611,0.01308 0.03957,0 0.01346,-0.01308 0.03957,-0.03653 0.03957,-0.03957 0,-0.0032 -0.0077,-0.034 0,-0.03957 0,-0.0068 0.03577,0 0.03957,0 0.0038,0 0,-0.0335 0,-0.03957 0,-0.01254 -0.01114,-0.03957 0,-0.03957 0.0041,0 0.03957,0.01152 0.03957,0 0,-0.01152 -0.0038,-0.03957 0,-0.03957 0,-0.01314 -0.0039,-0.03831 0,-0.03957 0.01013,-0.0033 0.01,-0.155 0,-0.158292 -0.0042,-0.0014 0,-0.02643 0,-0.03957 0,-0.01313 0.0038,-0.03957 0,-0.03957 0,-0.0079 -0.03375,0 -0.03957,0 -0.0058,0 0,-0.03185 0,-0.03957 0,-0.0068 -0.03185,-0.034 -0.03957,-0.03957 0,-0.0096 -0.03147,-0.03957 -0.03957,-0.03957 -0.0066,0 0,-0.03261 0,-0.03957 0,-0.0033 -0.03185,0.0056 -0.03957,0 -0.0077,-0.0056 0,-0.03438 0,-0.03957 0,-0.01216 -0.02742,-0.03957 -0.03957,-0.03957 -0.0056,-0.0077 -0.03615,0 -0.03957,0 -0.0034,0 0.01076,-0.02805 0,-0.03957 -0.01076,-0.01152 -0.03704,0 -0.03957,0 -0.0025,0 0.0094,-0.0302 0,-0.03957 -0.0094,-0.0094 -0.03172,0.0025 -0.03957,0 -0.0077,-0.0025 -0.03957,-0.034 -0.03957,-0.03957 -0.0056,-0.0077 -0.03362,-0.03957 -0.03957,-0.03957 -0.0056,-0.0077 -0.03273,0 -0.03957,0 0,-0.0038 0.0049,-0.03957 0,-0.03957 -0.0049,0 -0.034,0.0077 -0.03957,0 -0.007,0 -0.03134,-0.03185 -0.03957,-0.03957 -0.0082,-0.0077 -0.03451,0 -0.03957,0 -0.01549,0 -0.03957,-0.02729 -0.03957,-0.03957 0,-0.0041 -0.03185,0 -0.03957,0 0,-0.0038 0.0087,-0.03957 0,-0.03957 -0.0087,0 -0.034,0.0077 -0.03957,0 -0.0056,-0.0077 -0.03273,0 -0.03957,0 -0.0068,0 0,-0.03577 0,-0.03957 -0.0096,0 -0.03957,0.0038 -0.03957,0 -0.0068,0 -0.034,0.0077 -0.03957,0 -0.0056,-0.0077 0.0087,-0.03957 0,-0.03957 -0.0087,0 -0.03957,0.0038 -0.03957,0 0,-0.0034 -0.02805,-0.03476 -0.03957,-0.03957 -0.01152,-0.0048 -0.03957,0.0034 -0.03957,0 0,-0.0038 -0.03185,-0.03957 -0.03957,-0.03957 0,-0.01228 -0.02409,0 -0.03957,0 -0.008,0 0,-0.03577 0,-0.03957 0,-0.0038 -0.03185,0 -0.03957,0 -0.0087,0 -0.034,0.0077 -0.03957,0 -0.0056,-0.0077 -0.03273,-0.03957 -0.03957,-0.03957 -0.0079,0 -0.03134,-0.03185 -0.03957,-0.03957 -0.0082,-0.0077 -0.03451,0 -0.03957,0 -0.0096,0 -0.03957,0.0038 -0.03957,0 0,-0.0038 0.006,-0.03957 0,-0.03957 -0.01013,0 -0.01531,0.02175 -0.03957,0 -0.01335,-0.0119 -0.03463,-0.01275 -0.03957,0 -0.0022,0.0058 -0.03362,0 -0.03957,0 z m 0,0.751887 c 0.0077,0 0.03957,0.0029 0.03957,0 0.01646,-0.0072 0.03755,-0.0061 0.03957,0 0.0085,0 0.034,-0.0077 0.03957,0 0.0056,0.0077 -0.0052,0.03957 0,0.03957 0.0052,0 0.03425,-0.0048 0.03957,0 0.02114,0.01902 0.03552,0 0.03957,0 0.0023,0 0.02083,0.02034 0.03957,0.03957 0.01874,0.01924 0.03717,0.03957 0.03957,0.03957 0.0089,0 0.03957,0.02919 0.03957,0.03957 0,0.006 -0.0038,0.03957 0,0.03957 0.0042,0 0,0.03251 0,0.07915 0,0.04664 0.0042,0.03957 0,0.03957 -0.0038,0 0,0.03185 0,0.03957 0,0.0077 -0.03577,0 -0.03957,0 0,0.01089 0.0086,0.03957 0,0.03957 -0.0075,0 -0.03957,0.03122 -0.03957,0.03957 0,0.0099 -0.02982,0.03957 -0.03957,0.03957 0,0.0038 -0.03349,0 -0.03957,0 -0.01089,0 0,0.03096 0,0.03957 0,0.0081 -0.01645,0.02944 -0.03957,0.03957 -0.01254,0.0056 -0.03957,-0.0029 -0.03957,0 -0.0068,0 -0.034,0.03185 -0.03957,0.03957 -0.008,0 -0.034,-0.0077 -0.03957,0 -0.0056,0.0077 -0.03362,0.03957 -0.03957,0.03957 -0.0056,0.0077 -0.03083,0 -0.03957,0 -0.0087,0 0,0.03577 0,0.03957 -0.0077,0 -0.03957,-0.0038 -0.03957,0 -0.0096,0 -0.03957,-0.0038 -0.03957,0 -0.0077,0 0,0.03375 0,0.03957 0,0.0058 -0.03185,0 -0.03957,0 0,0.0038 -0.02995,0 -0.03957,0 -0.0096,0 0,0.03577 0,0.03957 -0.0077,0 -0.03957,-0.0038 -0.03957,0 -0.01346,0 -0.03957,-0.0038 -0.03957,0 -0.0077,0 -0.03957,0.03577 -0.03957,0.03957 -0.01346,0 -0.03957,-0.0038 -0.03957,0 0,0.0038 -0.0261,0 -0.03957,0 0,0.0038 -0.02419,0 -0.03957,0 -0.01545,0 -0.03957,0.03577 -0.03957,0.03957 0,0.0038 -0.01841,0 -0.03957,0 0,0.0044 -0.09294,0 -0.197865,0 -0.104929,0 -0.158292,0.0044 -0.158292,0 0,-0.0038 -0.01841,0 -0.03957,0 -0.02116,0 -0.03957,0.0038 -0.03957,0 0,-0.0038 0.01152,-0.03957 0,-0.03957 -0.01152,0 -0.03957,0.0038 -0.03957,0 -0.01346,0 -0.03957,0.0038 -0.03957,0 -0.0077,0 -0.03957,0.0038 -0.03957,0 0,-0.0038 0.007,-0.03957 0,-0.03957 -0.01564,0 -0.0395,0.0071 -0.03957,0 -2.6e-5,-0.0028 -0.03185,0 -0.03957,0 0,-0.0038 0.008,-0.03957 0,-0.03957 -0.0092,0 0.0063,-0.03327 0,-0.03957 0,-0.0038 0.03375,-0.03957 0.03957,-0.03957 0,-0.0038 0.02995,0 0.03957,0 0,-0.0038 0.03185,-0.03957 0.03957,-0.03957 0,-0.0051 0.02611,0.0048 0.03957,0 0.01346,-0.0049 0,-0.03603 0,-0.03957 0,-0.0037 0.03185,0 0.03957,0 0.0087,0 0.034,-0.03185 0.03957,-0.03957 0.0056,-0.0077 0.03274,0 0.03957,0 0.0096,0 0.03957,0.0038 0.03957,0 0,-0.0038 -0.0068,-0.03957 0,-0.03957 0.0068,0 0.034,0.0077 0.03957,0 0.0087,0 0.03957,-0.03577 0.03957,-0.03957 0,-0.0038 0.03425,0 0.03957,0 0.0022,-0.0058 -0.006,-0.03957 0,-0.03957 0.006,0 0.03957,0.0038 0.03957,0 0,-0.0038 0.03185,0 0.03957,0 0,-0.003 0.02611,-0.03476 0.03957,-0.03957 0,-0.0037 0.03185,0 0.03957,0 0.0077,0 0,-0.03577 0,-0.03957 0.0087,0 0.034,0.0077 0.03957,0 0.0056,-0.0077 0.03274,0 0.03957,0 0.0068,0 0,-0.03577 0,-0.03957 0.0096,0 0.03957,0.0038 0.03957,0 0.0068,0 0.034,0.0077 0.03957,0 0.0056,-0.0077 -0.0087,-0.03957 0,-0.03957 0.0095,0 0.03957,0.0062 0.03957,0 0.0077,0 0,-0.03641 0,-0.03957 0,-0.0032 0.02611,0.0053 0.03957,0 0.01346,-0.0053 0.03957,0.0032 0.03957,0 0.0077,0 0,-0.03577 0,-0.03957 0,-0.0038 0.03185,0 0.03957,0 0.0058,0 0.03957,0.0038 0.03957,0 0.0077,0 0,-0.03577 0,-0.03957 0,-0.0038 0.03185,0 0.03957,0 0.0087,0 0.034,-0.03185 0.03957,-0.03957 0.0056,-0.0077 0.03274,0 0.03957,0 0.0096,0 0.03957,0.0038 0.03957,0 0,-0.0038 -0.0077,-0.03957 0,-0.03957 0.0077,0 0.03957,0.0042 0.03957,0 0.008,0 0.03957,-0.03577 0.03957,-0.03957 z m -1.97865,1.068471 c 0.0068,0 0.034,0.0077 0.03957,0 0.0076,-0.01051 0.01572,0 0.03957,0 0.02387,0 0.03197,-0.01051 0.03957,0 0.0056,0.0077 0.03362,0 0.03957,0 0.006,0 -0.0056,0.03185 0,0.03957 0.0056,0.0077 0.03261,0 0.03957,0 0.0119,0 0.03957,0.02982 0.03957,0.03957 0,0.0056 0.034,0.03957 0.03957,0.03957 0.009,0 0.03957,0.02944 0.03957,0.03957 0.0038,0 0,0.02805 0,0.03957 0,0.01152 -0.0038,0.03957 0,0.03957 -0.0013,0.0057 0.0019,0.03957 0,0.03957 -0.0038,0 0,0.02805 0,0.03957 -0.0038,0 0,0.03185 0,0.03957 0,0.01489 -0.02682,0.03957 -0.03957,0.03957 -0.0041,0 -0.03957,0.03375 -0.03957,0.03957 0,0.01401 -0.06509,0.07915 -0.07915,0.07915 -0.01216,0 -0.03957,0.02818 -0.03957,0.03957 -0.0087,0 -0.034,0.03185 -0.03957,0.03957 -0.0056,0.0077 -0.03274,0 -0.03957,0 0,0.0038 -0.03273,0.03957 -0.03957,0.03957 -0.0056,0.0077 -0.0316,0 -0.03957,0 -0.008,0 -0.034,0.03185 -0.03957,0.03957 -0.0068,0 -0.03957,-0.0038 -0.03957,0 -0.0058,0 0,0.03577 0,0.03957 -0.0077,0 -0.03957,-0.0038 -0.03957,0 -0.0072,0 -0.03742,-0.0058 -0.03957,0 -0.0023,0.0058 0.0079,0.03957 0,0.03957 0,0.0038 -0.03185,0 -0.03957,0 -0.0077,0 -0.03957,-0.0038 -0.03957,0 0,0.0038 0.0096,0.03957 0,0.03957 -0.0096,0 -0.03957,-0.0038 -0.03957,0 0,0.0038 -0.03185,0 -0.03957,0 -0.0077,0 0,0.03577 0,0.03957 -0.0096,0 -0.03957,-0.0038 -0.03957,0 -0.0096,0 -0.03957,-0.0038 -0.03957,0 -0.01152,0 -0.03957,0.03577 -0.03957,0.03957 -0.0096,0 -0.03957,-0.0038 -0.03957,0 -0.01152,0 -0.03957,-0.0038 -0.03957,0 -0.01152,0 -0.03957,0.03577 -0.03957,0.03957 0,0.0038 -0.02226,0 -0.03957,0 0,0.0079 -0.01626,0 -0.03957,0 -0.01731,0 -0.03957,0.03603 -0.03957,0.03957 0,0.0035 -0.01552,-0.0025 -0.03957,0 -0.08234,0.0087 -0.316584,0.0077 -0.316584,0 0,-0.0039 -0.02226,0 -0.03957,0 -0.01731,0 -0.03957,0.0038 -0.03957,0 0,-0.0038 -0.02406,-0.03957 -0.03957,-0.03957 -0.01862,0 -0.03691,0.007 -0.03957,0 0,-0.0038 -0.02611,-0.03957 -0.03957,-0.03957 -0.01346,0 -0.03957,0.0038 -0.03957,0 0,-0.0038 -0.03185,0 -0.03957,0 0,-0.0038 0.0096,-0.03957 0,-0.03957 -0.0096,0 -0.03957,0.0038 -0.03957,0 -0.0054,0 0.0063,-0.03453 0,-0.03957 0,-0.003 0.02611,-0.03476 0.03957,-0.03957 0,-0.0037 0.03185,0 0.03957,0 0,-0.0038 -0.0087,-0.03957 0,-0.03957 0.0087,0 0.034,0.0077 0.03957,0 0.0056,-0.0077 0.03273,0 0.03957,0 0,-0.0038 -0.0077,-0.03957 0,-0.03957 0.0077,0 0.03957,0.0038 0.03957,0 0.0087,0 0.034,0.0077 0.03957,0 0.0056,-0.0077 -0.0068,-0.03957 0,-0.03957 0.0068,0 0.03957,0.0058 0.03957,0 0.0096,0 0.03957,0.0038 0.03957,0 0,-0.0038 -0.006,-0.03957 0,-0.03957 0.0082,-0.0077 0.03261,0 0.03957,0 0.007,0 0.03957,0.0038 0.03957,0 0,-0.0038 -0.0077,-0.03957 0,-0.03957 0.0058,0 0.03957,0.0038 0.03957,0 0.0077,0 0,-0.03577 0,-0.03957 0,-0.0038 0.03185,0 0.03957,0 0,-0.0038 0.03084,0 0.03957,0 0.0056,-0.0077 0.03273,-0.03957 0.03957,-0.03957 0,-0.0038 0.02995,0 0.03957,0 0.0077,0 0.03957,-0.03514 0.03957,-0.03957 0,-0.01076 0.02445,2.75e-4 0.03957,0 0.0068,-1.27e-4 0,-0.03577 0,-0.03957 0.0077,0 0.03957,0.0038 0.03957,0 0,-0.0038 0.03375,0 0.03957,0 0.0058,0 0,-0.03577 0,-0.03957 0.0077,0 0.03957,0.0038 0.03957,0 0,-0.0038 0.03375,0 0.03957,0 0.0058,0 0,-0.03577 0,-0.03957 0.0077,0 0.03957,0.0038 0.03957,0 0,-0.0038 0.0316,-0.03957 0.03957,-0.03957 0,-0.0041 0.03185,0 0.03957,0 0.0077,0 0,-0.03577 0,-0.03957 0,-0.0038 0.02995,0 0.03957,0 0.006,0 0.03134,0.0077 0.03957,0 0.0082,-0.0077 0.03261,-0.03957 0.03957,-0.03957 0.0077,0 0.03957,0.0038 0.03957,0 0,-0.0038 -0.0058,-0.03957 0,-0.03957 0,-0.0038 0.03185,0 0.03957,0 0.0077,0 0.03957,0.0038 0.03957,0 0,-0.0038 -0.0077,-0.03957 0,-0.03957 0,-0.0038 0.03375,0 0.03957,0 0.0077,0 0.03957,0.0038 0.03957,0 0,-0.0038 -0.0077,-0.03957 0,-0.03957 0,-0.0063 0.03007,0 0.03957,0 0.0087,0 -0.0056,-0.03185 0,-0.03957 0.0056,-0.0077 0.03273,0 0.03957,0 0,-0.0038 0.02995,0 0.03957,0 0,-0.0038 -0.0068,-0.03957 0,-0.03957 z"
         style="fill:#ffffff;fill-opacity:1;stroke:none"
         inkscape:connector-curvature="0" />
    </g>
  </g>
</svg>
