<?xml version="1.0" encoding="UTF-8" standalone="no"?>
<!-- Created with Inkscape (http://www.inkscape.org/) -->

<svg
   xmlns:dc="http://purl.org/dc/elements/1.1/"
   xmlns:cc="http://creativecommons.org/ns#"
   xmlns:rdf="http://www.w3.org/1999/02/22-rdf-syntax-ns#"
   xmlns:svg="http://www.w3.org/2000/svg"
   xmlns="http://www.w3.org/2000/svg"
   xmlns:sodipodi="http://sodipodi.sourceforge.net/DTD/sodipodi-0.dtd"
   xmlns:inkscape="http://www.inkscape.org/namespaces/inkscape"
   width="68.205482"
   height="68.205482"
   id="svg2985"
   version="1.1"
   inkscape:version="0.48.4 r9939"
   sodipodi:docname="icon_v21_addracket_white.svg"
   inkscape:export-filename="icon_addracket.png"
   inkscape:export-xdpi="148.51833"
   inkscape:export-ydpi="148.51833">
  <defs
     id="defs2987" />
  <sodipodi:namedview
     id="base"
     pagecolor="#ffffff"
     bordercolor="#666666"
     borderopacity="1.0"
     inkscape:pageopacity="0.0"
     inkscape:pageshadow="2"
     inkscape:zoom="4"
     inkscape:cx="-88.951851"
     inkscape:cy="-27.075711"
     inkscape:current-layer="layer1"
     showgrid="true"
     inkscape:document-units="px"
     inkscape:grid-bbox="true"
     inkscape:snap-smooth-nodes="true"
     inkscape:window-width="1877"
     inkscape:window-height="1176"
     inkscape:window-x="43"
     inkscape:window-y="24"
     inkscape:window-maximized="1"
     inkscape:snap-bbox="true"
     inkscape:object-nodes="true"
     inkscape:snap-global="false"
     showguides="true"
     inkscape:guide-bbox="true"
     fit-margin-top="0"
     fit-margin-left="0"
     fit-margin-right="0"
     fit-margin-bottom="0" />
  <metadata
     id="metadata2990">
    <rdf:RDF>
      <cc:Work
         rdf:about="">
        <dc:format>image/svg+xml</dc:format>
        <dc:type
           rdf:resource="http://purl.org/dc/dcmitype/StillImage" />
        <dc:title />
      </cc:Work>
    </rdf:RDF>
  </metadata>
  <g
     id="layer1"
     inkscape:label="Layer 1"
     inkscape:groupmode="layer"
     transform="translate(0.57219878,0.19141391)">
    <path
       style="fill:none;stroke:#ffffff;stroke-width:0.40000001000000002;stroke-linecap:butt;stroke-linejoin:miter;stroke-miterlimit:4;stroke-opacity:1;stroke-dasharray:none"
       d="m 29.380519,32.271447 23.75,-25.4375004"
       id="path4617"
       inkscape:connector-curvature="0" />
    <path
       inkscape:connector-curvature="0"
       id="path4619"
       d="m 27.380519,30.271447 23.75,-25.4375004"
       style="fill:none;stroke:#ffffff;stroke-width:0.40000001000000002;stroke-linecap:butt;stroke-linejoin:miter;stroke-miterlimit:4;stroke-opacity:1;stroke-dasharray:none" />
    <path
       style="fill:none;stroke:#ffffff;stroke-width:0.40000001000000002;stroke-linecap:butt;stroke-linejoin:miter;stroke-miterlimit:4;stroke-opacity:1;stroke-dasharray:none"
       d="m 25.380519,28.271447 23.75,-25.4375004"
       id="path4621"
       inkscape:connector-curvature="0" />
    <path
       inkscape:connector-curvature="0"
       id="path4623"
       d="m 23.380519,26.271447 23.75,-25.43750039"
       style="fill:none;stroke:#ffffff;stroke-width:0.40000001000000002;stroke-linecap:butt;stroke-linejoin:miter;stroke-miterlimit:4;stroke-opacity:1;stroke-dasharray:none" />
    <path
       style="fill:none;stroke:#ffffff;stroke-width:0.40000001000000002;stroke-linecap:butt;stroke-linejoin:miter;stroke-miterlimit:4;stroke-opacity:1;stroke-dasharray:none"
       d="m 31.380519,34.271447 23.75,-25.4375004"
       id="path4625"
       inkscape:connector-curvature="0" />
    <path
       inkscape:connector-curvature="0"
       id="path4627"
       d="m 33.380519,36.271447 23.75,-25.4375"
       style="fill:none;stroke:#ffffff;stroke-width:0.40000001000000002;stroke-linecap:butt;stroke-linejoin:miter;stroke-miterlimit:4;stroke-opacity:1;stroke-dasharray:none" />
    <path
       style="fill:none;stroke:#ffffff;stroke-width:0.40000001000000002;stroke-linecap:butt;stroke-linejoin:miter;stroke-miterlimit:4;stroke-opacity:1;stroke-dasharray:none"
       d="m 35.380519,38.271447 23.75,-25.4375"
       id="path4629"
       inkscape:connector-curvature="0" />
    <path
       style="fill:none;stroke:#ffffff;stroke-width:0.40000001000000002;stroke-linecap:butt;stroke-linejoin:miter;stroke-miterlimit:4;stroke-opacity:1;stroke-dasharray:none"
       d="m 25.693019,17.208947 18.84375,18.40625"
       id="path3832"
       inkscape:connector-curvature="0"
       sodipodi:nodetypes="cc" />
    <path
       sodipodi:nodetypes="cc"
       inkscape:connector-curvature="0"
       id="path4599"
       d="m 25.380519,20.771447 15.78125,15.28125"
       style="fill:none;stroke:#ffffff;stroke-width:0.40000001000000002;stroke-linecap:butt;stroke-linejoin:miter;stroke-miterlimit:4;stroke-opacity:1;stroke-dasharray:none" />
    <path
       style="fill:none;stroke:#ffffff;stroke-width:0.40000001000000002;stroke-linecap:butt;stroke-linejoin:miter;stroke-miterlimit:4;stroke-opacity:1;stroke-dasharray:none"
       d="m 27.693019,15.208947 18.84375,18.40625"
       id="path4601"
       inkscape:connector-curvature="0"
       sodipodi:nodetypes="cc" />
    <path
       sodipodi:nodetypes="cc"
       inkscape:connector-curvature="0"
       id="path4603"
       d="m 29.693019,13.208947 18.84375,18.40625"
       style="fill:none;stroke:#ffffff;stroke-width:0.40000001000000002;stroke-linecap:butt;stroke-linejoin:miter;stroke-miterlimit:4;stroke-opacity:1;stroke-dasharray:none" />
    <path
       style="fill:none;stroke:#ffffff;stroke-width:0.40000001000000002;stroke-linecap:butt;stroke-linejoin:miter;stroke-miterlimit:4;stroke-opacity:1;stroke-dasharray:none"
       d="m 31.693019,11.208947 18.84375,18.40625"
       id="path4605"
       inkscape:connector-curvature="0"
       sodipodi:nodetypes="cc" />
    <path
       sodipodi:nodetypes="cc"
       inkscape:connector-curvature="0"
       id="path4607"
       d="M 33.693019,9.2089466 52.536769,27.615197"
       style="fill:none;stroke:#ffffff;stroke-width:0.40000001000000002;stroke-linecap:butt;stroke-linejoin:miter;stroke-miterlimit:4;stroke-opacity:1;stroke-dasharray:none" />
    <path
       style="fill:none;stroke:#ffffff;stroke-width:0.40000001000000002;stroke-linecap:butt;stroke-linejoin:miter;stroke-miterlimit:4;stroke-opacity:1;stroke-dasharray:none"
       d="M 35.693019,7.2089466 54.536769,25.615197"
       id="path4609"
       inkscape:connector-curvature="0"
       sodipodi:nodetypes="cc" />
    <path
       sodipodi:nodetypes="cc"
       inkscape:connector-curvature="0"
       id="path4611"
       d="M 37.693019,5.2089466 56.536769,23.615197"
       style="fill:none;stroke:#ffffff;stroke-width:0.40000001000000002;stroke-linecap:butt;stroke-linejoin:miter;stroke-miterlimit:4;stroke-opacity:1;stroke-dasharray:none" />
    <path
       style="fill:none;stroke:#ffffff;stroke-width:0.40000001000000002;stroke-linecap:butt;stroke-linejoin:miter;stroke-miterlimit:4;stroke-opacity:1;stroke-dasharray:none"
       d="M 39.693019,3.2089466 58.536769,21.615197"
       id="path4613"
       inkscape:connector-curvature="0"
       sodipodi:nodetypes="cc" />
    <path
       sodipodi:nodetypes="cc"
       inkscape:connector-curvature="0"
       id="path4615"
       d="M 41.693019,1.2089466 57.536769,16.490197"
       style="fill:none;stroke:#ffffff;stroke-width:0.40000001000000002;stroke-linecap:butt;stroke-linejoin:miter;stroke-miterlimit:4;stroke-opacity:1;stroke-dasharray:none" />
    <g
       id="g2986"
       transform="matrix(1.24845,1.1176369,-1.1176369,1.24845,24.520484,-36.436107)"
       style="fill:none;stroke:#ffffff;stroke-width:2.31315827000000018;stroke-miterlimit:4;stroke-opacity:1;stroke-dasharray:none">
      <path
         sodipodi:nodetypes="aaaaaaaaaaaaaasssaaaaaaaccaaaasssaaaaaaaaaaaaaa"
         inkscape:connector-curvature="0"
         id="path3004"
         d="m 29.746697,7.2707513 c -0.464269,0.012742 -0.927191,0.083018 -1.382073,0.1767767 -0.704098,0.1451261 -1.413512,0.3086954 -2.073108,0.5946125 -0.498161,0.2159395 -0.964367,0.509125 -1.398143,0.8356717 -0.451162,0.3396349 -0.876875,0.7224642 -1.237437,1.1570838 -0.433624,0.522687 -0.795743,1.108827 -1.092801,1.719555 -0.168964,0.347377 -0.276644,0.722225 -0.385695,1.092802 -0.216047,0.734173 -0.415449,1.477184 -0.53033,2.233814 -0.0943,0.621099 -0.107125,1.25241 -0.128565,1.880261 -0.01262,0.369409 -0.01495,0.73955 0,1.108872 0.02413,0.596076 0.06189,1.19304 0.144636,1.783838 0.07577,0.541015 0.179221,1.079595 0.321412,1.607061 0.176812,0.655895 0.413313,1.295108 0.658895,1.928473 0.17953,0.463015 0.369413,0.923397 0.594612,1.366002 0.259143,0.509319 0.548343,1.004682 0.867813,1.478496 0.07727,0.114605 0.16018,0.225156 0.245734,0.333801 0.240734,0.305706 0.502423,0.596321 0.718503,0.919706 0.226655,0.339212 0.420185,0.6999 0.610683,1.06066 0.311015,0.588991 0.567197,1.205542 0.867813,1.799908 0.305751,0.604519 0.676536,1.176692 0.95154,1.795804 0.229077,0.515717 0.409952,1.052457 0.578542,1.59099 0.119174,0.38068 0.201411,0.771963 0.305342,1.157084 0.125962,0.466758 0.277047,0.927054 0.385694,1.398143 0.124905,0.541583 0.226731,1.08899 0.305342,1.639202 0.04569,0.319768 0.09642,0.964236 0.09642,0.964236 l 1.084512,-0.02459 c 0,0 0.109062,-0.956561 0.192847,-1.430284 0.117486,-0.664273 0.257063,-1.325694 0.433906,-1.976685 0.181634,-0.668629 0.408811,-1.324539 0.642825,-1.976685 0.400489,-1.116077 0.764275,-2.25358 1.301719,-3.310545 0.386125,-0.759374 1.012825,-1.561562 1.370917,-2.156909 0.289847,-0.481887 0.656424,-0.913089 0.986335,-1.368838 0.08694,-0.120099 0.171331,-0.241903 0.251102,-0.366788 0.431355,-0.675304 0.838588,-1.368654 1.189225,-2.089179 0.334304,-0.686963 0.645599,-1.390363 0.867813,-2.12132 0.201983,-0.664409 0.313792,-1.354373 0.417836,-2.040967 0.09759,-0.644009 0.172494,-1.293501 0.192847,-1.944544 0.01843,-0.589357 -0.01893,-1.179869 -0.06428,-1.767767 C 37.993492,15.726907 37.933303,15.13507 37.830213,14.550737 37.728852,13.976203 37.609511,13.401852 37.428448,12.847253 37.26603,12.349764 37.061367,11.864075 36.817765,11.400898 36.637229,11.057632 36.423175,10.731275 36.191011,10.420591 35.902327,10.034271 35.597534,9.6545568 35.242845,9.3277892 34.876425,8.990214 34.465285,8.6993714 34.037549,8.4439057 33.512976,8.1306038 32.962133,7.8490667 32.382277,7.6564459 31.889759,7.4928377 31.369837,7.4208855 30.855569,7.3511044 30.488341,7.3012752 30.117151,7.2605837 29.746697,7.2707513 z"
         style="fill:none;stroke:#ffffff;stroke-width:2.31315827000000018;stroke-linecap:butt;stroke-linejoin:miter;stroke-miterlimit:4;stroke-opacity:1;stroke-dasharray:none" />
      <path
         sodipodi:nodetypes="caaaaaaac"
         inkscape:connector-curvature="0"
         id="path2984"
         d="m 24.351647,26.567871 c 0,0 0.943185,0.820092 1.473821,1.144695 0.54992,0.3364 1.141633,0.611278 1.751697,0.819601 0.602646,0.20579 1.229869,0.361536 1.86419,0.417835 0.245683,0.0218 0.494359,-0.0027 0.739248,-0.03214 0.574735,-0.06902 1.148623,-0.172521 1.703485,-0.337483 0.509169,-0.151377 1.009529,-0.345136 1.478496,-0.594612 0.354163,-0.188404 0.673542,-0.436838 0.996377,-0.674966 0.283834,-0.209361 0.825626,-0.661729 0.825626,-0.661729"
         style="fill:none;stroke:#ffffff;stroke-width:2.31315827000000018;stroke-linecap:butt;stroke-linejoin:miter;stroke-miterlimit:4;stroke-opacity:1;stroke-dasharray:none" />
    </g>
    <path
       style="fill:none;stroke:#ffffff;stroke-width:4.09999990000000025;stroke-linecap:butt;stroke-linejoin:round;stroke-miterlimit:4;stroke-opacity:1;stroke-dasharray:none"
       d="M 17.487209,47.807839 4.6914074,61.170514 3.0060231,59.541521 15.530074,46.372667 l 1.957135,1.435172"
       id="path3830"
       inkscape:connector-curvature="0"
       sodipodi:nodetypes="ccccc" />
    <path
       style="fill:#ffffff;stroke:#ffffff;stroke-opacity:1;fill-opacity:1"
       d="m 40.643216,39.566519 0,11.472219 -11.472221,0 0,4.588888 11.472221,0 0,11.472221 4.588888,0 0,-11.472221 11.472219,0 0,-4.588888 -11.460448,0 0,-11.489405 z"
       id="path4671"
       inkscape:connector-curvature="0"
       sodipodi:nodetypes="cccccccccc" />
    <rect
       style="fill:none;stroke:none;stroke-width:0.50391823000000002;stroke-linecap:square;stroke-linejoin:round;stroke-miterlimit:4;stroke-opacity:1;stroke-dasharray:none"
       id="rect3794"
       width="67.701561"
       height="67.701561"
       x="-0.32023966"
       y="0.060545206" />
  </g>
</svg>
